Suite/Test/Step Name,Browser,Description,Tag,Start time,End time,Duration,Status
Feature Login,Chrome 122.0.0.0,,,21-02-2024 19:26:54,21-02-2024 19:28:15,1m - 20.541s,FAILED
,,,,,,,
Test Cases/Step Definition/Feature Login/LG001 - pengguna tidak isi username dan pasword saat login,Chrome 122.0.0.0,,,21-02-2024 19:26:54,21-02-2024 19:27:06,11.404s,PASSED
Start listener action : beforeTestCase,Chrome 122.0.0.0,,,21-02-2024 19:26:54,21-02-2024 19:26:55,0.183s,PASSED
"callTestCase(findTestCase(""Buka Website""), [:], STOP_ON_FAILURE)",Chrome 122.0.0.0,,,21-02-2024 19:26:55,21-02-2024 19:27:03,8.190s,PASSED
"callTestCase(findTestCase(""Page/User Login/Click btn untuk masuk ke halaman login""), [:], STOP_ON_FAILURE)",Chrome 122.0.0.0,,,21-02-2024 19:27:03,21-02-2024 19:27:04,0.598s,PASSED
"callTestCase(findTestCase(""Page/User Login/Verify content""), [:], STOP_ON_FAILURE)",Chrome 122.0.0.0,,,21-02-2024 19:27:04,21-02-2024 19:27:05,1.499s,PASSED
"callTestCase(findTestCase(""Page/User Login/btn login""), [:], STOP_ON_FAILURE)",Chrome 122.0.0.0,,,21-02-2024 19:27:05,21-02-2024 19:27:05,0.459s,PASSED
"callTestCase(findTestCase(""Close Browser""), [:], STOP_ON_FAILURE)",Chrome 122.0.0.0,,,21-02-2024 19:27:05,21-02-2024 19:27:06,0.333s,PASSED
,,,,,,,
Test Cases/Step Definition/Feature Login/LG002 - pengguna login dengan username dan password salah,Chrome 122.0.0.0,,,21-02-2024 19:27:06,21-02-2024 19:27:13,7.157s,PASSED
Start listener action : beforeTestCase,Chrome 122.0.0.0,,,21-02-2024 19:27:06,21-02-2024 19:27:06,0.011s,PASSED
"callTestCase(findTestCase(""Buka Website""), [:], STOP_ON_FAILURE)",Chrome 122.0.0.0,,,21-02-2024 19:27:06,21-02-2024 19:27:08,2.285s,PASSED
"callTestCase(findTestCase(""Page/User Login/Click btn untuk masuk ke halaman login""), [:], STOP_ON_FAILURE)",Chrome 122.0.0.0,,,21-02-2024 19:27:08,21-02-2024 19:27:09,0.433s,PASSED
"callTestCase(findTestCase(""Page/User Login/Verify content""), [:], STOP_ON_FAILURE)",Chrome 122.0.0.0,,,21-02-2024 19:27:09,21-02-2024 19:27:10,1.552s,PASSED
"callTestCase(findTestCase(""Page/User Login/Input username salah""), [:], STOP_ON_FAILURE)",Chrome 122.0.0.0,,,21-02-2024 19:27:10,21-02-2024 19:27:11,0.893s,PASSED
"callTestCase(findTestCase(""Page/User Login/Input password salah""), [:], STOP_ON_FAILURE)",Chrome 122.0.0.0,,,21-02-2024 19:27:11,21-02-2024 19:27:12,0.515s,PASSED
"callTestCase(findTestCase(""Page/User Login/btn login""), [:], STOP_ON_FAILURE)",Chrome 122.0.0.0,,,21-02-2024 19:27:12,21-02-2024 19:27:12,0.440s,PASSED
"callTestCase(findTestCase(""Page/User Login/Read error mesaage""), [""expected"":""invalid username or password""], STOP_ON_FAILURE)",Chrome 122.0.0.0,,,21-02-2024 19:27:12,21-02-2024 19:27:13,0.680s,PASSED
"callTestCase(findTestCase(""Close Browser""), [:], STOP_ON_FAILURE)",Chrome 122.0.0.0,,,21-02-2024 19:27:13,21-02-2024 19:27:13,0.248s,PASSED
,,,,,,,
Test Cases/Step Definition/Feature Login/LG003 - pengguna login dengan username benar dan password salah,Chrome 122.0.0.0,,,21-02-2024 19:27:13,21-02-2024 19:27:21,8.395s,PASSED
Start listener action : beforeTestCase,Chrome 122.0.0.0,,,21-02-2024 19:27:13,21-02-2024 19:27:13,0.005s,PASSED
"callTestCase(findTestCase(""Buka Website""), [:], STOP_ON_FAILURE)",Chrome 122.0.0.0,,,21-02-2024 19:27:13,21-02-2024 19:27:15,1.560s,PASSED
"callTestCase(findTestCase(""Page/User Login/Click btn untuk masuk ke halaman login""), [:], STOP_ON_FAILURE)",Chrome 122.0.0.0,,,21-02-2024 19:27:15,21-02-2024 19:27:17,2.376s,PASSED
"callTestCase(findTestCase(""Page/User Login/Verify content""), [:], STOP_ON_FAILURE)",Chrome 122.0.0.0,,,21-02-2024 19:27:17,21-02-2024 19:27:19,1.513s,PASSED
"callTestCase(findTestCase(""Page/User Login/Input username benar""), [:], STOP_ON_FAILURE)",Chrome 122.0.0.0,,,21-02-2024 19:27:19,21-02-2024 19:27:19,0.782s,PASSED
"callTestCase(findTestCase(""Page/User Login/Input password salah""), [:], STOP_ON_FAILURE)",Chrome 122.0.0.0,,,21-02-2024 19:27:19,21-02-2024 19:27:20,0.434s,PASSED
"callTestCase(findTestCase(""Page/User Login/btn login""), [:], STOP_ON_FAILURE)",Chrome 122.0.0.0,,,21-02-2024 19:27:20,21-02-2024 19:27:20,0.433s,PASSED
"callTestCase(findTestCase(""Page/User Login/Read error mesaage""), [""expected"":""invalid username or password""], STOP_ON_FAILURE)",Chrome 122.0.0.0,,,21-02-2024 19:27:20,21-02-2024 19:27:21,0.930s,PASSED
"callTestCase(findTestCase(""Close Browser""), [:], STOP_ON_FAILURE)",Chrome 122.0.0.0,,,21-02-2024 19:27:21,21-02-2024 19:27:21,0.233s,PASSED
,,,,,,,
Test Cases/Step Definition/Feature Login/LG004 - pengguna login dengan username salah dan password benar,Chrome 122.0.0.0,,,21-02-2024 19:27:21,21-02-2024 19:28:08,46.251s,FAILED
Start listener action : beforeTestCase,Chrome 122.0.0.0,,,21-02-2024 19:27:21,21-02-2024 19:27:21,0.004s,PASSED
"callTestCase(findTestCase(""Buka Website""), [:], STOP_ON_FAILURE)",Chrome 122.0.0.0,,,21-02-2024 19:27:21,21-02-2024 19:28:07,45.909s,PASSED
"callTestCase(findTestCase(""Page/User Login/Click btn untuk masuk ke halaman login""), [:], STOP_ON_FAILURE)",Chrome 122.0.0.0,,,21-02-2024 19:28:07,21-02-2024 19:28:08,0.229s,FAILED
,,,,,,,
Test Cases/Step Definition/Feature Login/LG005 - pengguna login dengan username dan password benar,Chrome 122.0.0.0,,,21-02-2024 19:28:08,21-02-2024 19:28:15,7.086s,PASSED
Start listener action : beforeTestCase,Chrome 122.0.0.0,,,21-02-2024 19:28:08,21-02-2024 19:28:08,0.008s,PASSED
"callTestCase(findTestCase(""Buka Website""), [:], STOP_ON_FAILURE)",Chrome 122.0.0.0,,,21-02-2024 19:28:08,21-02-2024 19:28:10,2.017s,PASSED
"callTestCase(findTestCase(""Page/User Login/Click btn untuk masuk ke halaman login""), [:], STOP_ON_FAILURE)",Chrome 122.0.0.0,,,21-02-2024 19:28:10,21-02-2024 19:28:10,0.409s,PASSED
"callTestCase(findTestCase(""Page/User Login/Verify content""), [:], STOP_ON_FAILURE)",Chrome 122.0.0.0,,,21-02-2024 19:28:10,21-02-2024 19:28:12,1.521s,PASSED
"callTestCase(findTestCase(""Page/User Login/Input username benar""), [:], STOP_ON_FAILURE)",Chrome 122.0.0.0,,,21-02-2024 19:28:12,21-02-2024 19:28:13,0.740s,PASSED
"callTestCase(findTestCase(""Page/User Login/Input password benar""), [:], STOP_ON_FAILURE)",Chrome 122.0.0.0,,,21-02-2024 19:28:13,21-02-2024 19:28:13,0.457s,PASSED
"callTestCase(findTestCase(""Page/User Login/btn login""), [:], STOP_ON_FAILURE)",Chrome 122.0.0.0,,,21-02-2024 19:28:13,21-02-2024 19:28:13,0.410s,PASSED
"callTestCase(findTestCase(""Page/User Login/Verfiy Berhasil Login""), [:], STOP_ON_FAILURE)",Chrome 122.0.0.0,,,21-02-2024 19:28:13,21-02-2024 19:28:14,1.097s,PASSED
"callTestCase(findTestCase(""Close Browser""), [:], STOP_ON_FAILURE)",Chrome 122.0.0.0,,,21-02-2024 19:28:14,21-02-2024 19:28:15,0.211s,PASSED
