[
  {
    "line": 1,
    "elements": [
      {
        "line": 3,
        "name": "User want to register new",
        "description": "",
        "id": "register-feature;user-want-to-register-new",
        "type": "scenario",
        "keyword": "Scenario",
        "steps": [
          {
            "result": {
              "duration": 1666346000,
              "status": "passed"
            },
            "line": 4,
            "name": "User open browser",
            "match": {
              "location": "RegisterStep.openbrowser()"
            },
            "keyword": "Given "
          },
          {
            "result": {
              "duration": 19788805100,
              "status": "passed"
            },
            "line": 5,
            "name": "User enter username,password, and email",
            "match": {
              "location": "RegisterStep.enterdataregister()"
            },
            "keyword": "When "
          },
          {
            "result": {
              "duration": 1320942700,
              "status": "passed"
            },
            "line": 6,
            "name": "User is success register forward to homepage",
            "match": {
              "location": "RegisterStep.verifyhomepage()"
            },
            "keyword": "Then "
          }
        ]
      }
    ],
    "name": "Register Feature",
    "description": "",
    "id": "register-feature",
    "keyword": "Feature",
    "uri": "C:/Users/USER/Katalon Studio/Website Binar/Include/features/Register.feature",
    "tags": []
  }
]