[
  {
    "line": 1,
    "elements": [
      {
        "BDD_TESTRUN_UUID": "91733f87-da38-4174-9e9f-8f4085542ea0",
        "line": 3,
        "name": "User want to register new",
        "description": "",
        "id": "register-feature;user-want-to-register-new",
        "type": "scenario",
        "keyword": "Scenario",
        "steps": [
          {
            "result": {
              "duration": 1666346000,
              "status": "passed"
            },
            "line": 4,
            "name": "User open browser",
            "match": {
              "location": "RegisterStep.openbrowser()"
            },
            "keyword": "Given ",
            "BDD_STEP_UUID": "67f0d366-564f-40cf-999a-cc2c775f388d"
          },
          {
            "result": {
              "duration": 19788805100,
              "status": "passed"
            },
            "line": 5,
            "name": "User enter username,password, and email",
            "match": {
              "location": "RegisterStep.enterdataregister()"
            },
            "keyword": "When ",
            "BDD_STEP_UUID": "8948fef4-067b-4a78-90b1-b7ccef2ec19a"
          },
          {
            "result": {
              "duration": 1320942700,
              "status": "passed"
            },
            "line": 6,
            "name": "User is success register forward to homepage",
            "match": {
              "location": "RegisterStep.verifyhomepage()"
            },
            "keyword": "Then ",
            "BDD_STEP_UUID": "69c671ca-aa69-47a9-96a4-f4df5ac6db6a"
          }
        ]
      }
    ],
    "name": "Register Feature",
    "description": "",
    "id": "register-feature",
    "keyword": "Feature",
    "uri": "C:/Users/USER/Katalon Studio/Website Binar/Include/features/Register.feature",
    "tags": []
  }
]