[
  {
    "line": 2,
    "elements": [
      {
        "line": 6,
        "name": "the user wants to buy the product",
        "description": "",
        "id": "negotiable;the-user-wants-to-buy-the-product",
        "type": "scenario",
        "keyword": "Scenario",
        "steps": [
          {
            "result": {
              "duration": 5555072500,
              "status": "passed"
            },
            "line": 7,
            "name": "user negotiate goods",
            "match": {
              "location": "negotiable.user_negotiate()"
            },
            "keyword": "Given "
          },
          {
            "result": {
              "duration": 75127469000,
              "status": "passed"
            },
            "line": 8,
            "name": "user enter bid price and click send",
            "match": {
              "location": "negotiable.enter_bid_price()"
            },
            "keyword": "When "
          },
          {
            "result": {
              "duration": 763715100,
              "status": "passed"
            },
            "line": 9,
            "name": "offer send",
            "match": {
              "location": "negotiable.request_send()"
            },
            "keyword": "Then "
          }
        ],
        "tags": [
          {
            "name": "@tag"
          },
          {
            "name": "@tag1"
          }
        ]
      },
      {
        "line": 11,
        "name": "The user does not log in first",
        "description": "",
        "id": "negotiable;the-user-does-not-log-in-first",
        "type": "scenario",
        "keyword": "Scenario",
        "steps": [
          {
            "result": {
              "duration": 4146264100,
              "status": "passed"
            },
            "line": 12,
            "name": "users search for items",
            "match": {
              "location": "negotiable.search_item()"
            },
            "keyword": "Given "
          },
          {
            "result": {
              "duration": 67570391800,
              "status": "passed"
            },
            "line": 13,
            "name": "user selects items",
            "match": {
              "location": "negotiable.select_item()"
            },
            "keyword": "When "
          },
          {
            "result": {
              "duration": 1012084300,
              "status": "passed"
            },
            "line": 14,
            "name": "user must log in",
            "match": {
              "location": "negotiable.must_login()"
            },
            "keyword": "Then "
          }
        ],
        "tags": [
          {
            "name": "@tag"
          }
        ]
      },
      {
        "line": 16,
        "name": "users bid at a minus price",
        "description": "",
        "id": "negotiable;users-bid-at-a-minus-price",
        "type": "scenario",
        "keyword": "Scenario",
        "steps": [
          {
            "result": {
              "duration": 4050798400,
              "status": "passed"
            },
            "line": 17,
            "name": "the user wants to bid on the desired item",
            "match": {
              "location": "negotiable.bid_desired_item()"
            },
            "keyword": "Given "
          },
          {
            "result": {
              "duration": 74988577000,
              "status": "passed"
            },
            "line": 18,
            "name": "user is interested in one item",
            "match": {
              "location": "negotiable.interested_item()"
            },
            "keyword": "When "
          },
          {
            "result": {
              "duration": 377063900,
              "status": "passed"
            },
            "line": 19,
            "name": "Waiting for the seller\u0027s answer",
            "match": {
              "location": "negotiable.waiting_seller()"
            },
            "keyword": "Then "
          }
        ],
        "tags": [
          {
            "name": "@tag"
          }
        ]
      },
      {
        "line": 21,
        "name": "make an offer with an invalid email",
        "description": "",
        "id": "negotiable;make-an-offer-with-an-invalid-email",
        "type": "scenario",
        "keyword": "Scenario",
        "steps": [
          {
            "result": {
              "duration": 4654794600,
              "status": "passed"
            },
            "line": 22,
            "name": "users are interested in the items being sold",
            "match": {
              "location": "negotiable.item_being_sold()"
            },
            "keyword": "Given "
          },
          {
            "result": {
              "duration": 5979323200,
              "status": "passed"
            },
            "line": 23,
            "name": "user enters email",
            "match": {
              "location": "negotiable.enter_email()"
            },
            "keyword": "When "
          },
          {
            "result": {
              "duration": 1459317000,
              "status": "passed"
            },
            "line": 24,
            "name": "invalid user email",
            "match": {
              "location": "negotiable.invalid_email()"
            },
            "keyword": "Then "
          }
        ],
        "tags": [
          {
            "name": "@tag"
          }
        ]
      }
    ],
    "name": "negotiable",
    "description": "  I want to use this template for my feature file",
    "id": "negotiable",
    "keyword": "Feature",
    "uri": "D:/Binar Academy/Platinum/platinum_challenge_web_qae17/Include/features/negotiable.feature",
    "tags": [
      {
        "name": "@tag",
        "type": "Tag",
        "location": {
          "line": 1,
          "column": 1
        }
      }
    ]
  }
]