[
  {
    "line": 1,
    "elements": [
      {
        "line": 3,
        "name": "User want to logout",
        "description": "",
        "id": "logout-feature;user-want-to-logout",
        "type": "scenario",
        "keyword": "Scenario",
        "steps": [
          {
            "result": {
              "duration": 2393549900,
              "status": "passed"
            },
            "line": 4,
            "name": "User login page",
            "match": {
              "location": "LogoutStep.navigateToLoginPage()"
            },
            "keyword": "Given "
          },
          {
            "result": {
              "duration": 1778337000,
              "status": "passed"
            },
            "line": 5,
            "name": "User enter username and password and click login",
            "match": {
              "location": "LogoutStep.entercredentials()"
            },
            "keyword": "When "
          },
          {
            "result": {
              "duration": 1552907900,
              "status": "passed"
            },
            "line": 6,
            "name": "Click on logout button",
            "match": {
              "location": "LogoutStep.clicklogout()"
            },
            "keyword": "And "
          },
          {
            "result": {
              "duration": 761884200,
              "status": "passed"
            },
            "line": 7,
            "name": "User on homepage",
            "match": {
              "location": "LogoutStep.verifyhomepage()"
            },
            "keyword": "Then "
          }
        ]
      }
    ],
    "name": "LogOut Feature",
    "description": "",
    "id": "logout-feature",
    "keyword": "Feature",
    "uri": "C:/Users/USER/Katalon Studio/Website Binar/Include/features/LogOut.feature",
    "tags": []
  }
]