[
  {
    "line": 1,
    "elements": [
      {
        "line": 3,
        "name": "User want to edit product",
        "description": "",
        "id": "edit-product-feature;user-want-to-edit-product",
        "type": "scenario",
        "keyword": "Scenario",
        "steps": [
          {
            "result": {
              "duration": 4972334800,
              "status": "passed"
            },
            "line": 4,
            "name": "User Edit Product In Form Edit Product",
            "match": {
              "location": "EditProductionStep.navigateToEditPage()"
            },
            "keyword": "Given "
          },
          {
            "result": {
              "duration": 83211931800,
              "status": "passed"
            },
            "line": 5,
            "name": "User update product and click product",
            "match": {
              "location": "EditProductionStep.updateproduct()"
            },
            "keyword": "When "
          },
          {
            "result": {
              "duration": 597822600,
              "status": "passed"
            },
            "line": 6,
            "name": "User on halaman edit",
            "match": {
              "location": "EditProductionStep.verifyeditpage()"
            },
            "keyword": "Then "
          }
        ]
      }
    ],
    "name": "Edit Product Feature",
    "description": "",
    "id": "edit-product-feature",
    "keyword": "Feature",
    "uri": "C:/Binar Academy/Platinum Challenge/platinum_challenge_web_qae17/Include/features/EditProduct.feature",
    "tags": []
  }
]