[
  {
    "line": 1,
    "elements": [
      {
        "BDD_TESTRUN_UUID": "0f9b7ce6-ee2a-4b31-8674-ef2a0b7f79d1",
        "line": 3,
        "name": "User want to login using correct credential",
        "description": "",
        "id": "login-feature;user-want-to-login-using-correct-credential",
        "type": "scenario",
        "keyword": "Scenario",
        "steps": [
          {
            "result": {
              "duration": 3434381800,
              "status": "passed"
            },
            "line": 4,
            "name": "User navigates to login page",
            "match": {
              "location": "LoginStep.navigateToLoginPage()"
            },
            "keyword": "Given ",
            "BDD_STEP_UUID": "72047fa6-65c8-498a-a410-bb5e1b919cf7"
          },
          {
            "result": {
              "duration": 11862586700,
              "status": "passed"
            },
            "line": 5,
            "name": "User enter username and password",
            "match": {
              "location": "LoginStep.entercredentials()"
            },
            "keyword": "When ",
            "BDD_STEP_UUID": "94e5171e-bfa7-415c-a7f0-a0e26dbeb917"
          },
          {
            "result": {
              "duration": 2081081800,
              "status": "passed"
            },
            "line": 6,
            "name": "User is navigated on homepage",
            "match": {
              "location": "LoginStep.verifyhomepage()"
            },
            "keyword": "Then ",
            "BDD_STEP_UUID": "51317dd0-011f-4d11-8bb4-bb4c48c61ddb"
          }
        ]
      }
    ],
    "name": "Login Feature",
    "description": "",
    "id": "login-feature",
    "keyword": "Feature",
    "uri": "C:/Binar Academy/Platinum Challenge/platinum_challenge_web_qae17/Include/features/Login.feature",
    "tags": []
  }
]