Suite/Test/Step Name,Browser,Description,Tag,Start time,End time,Duration,Status
Feature Cucumber Siong Tjie,Chrome 122.0.0.0,,,21-03-2024 08:17:37,21-03-2024 08:19:54,2m - 17.137s,PASSED
,,,,,,,
Test Cases/cucumber/Feature Register,Chrome 122.0.0.0,,,21-03-2024 08:17:37,21-03-2024 08:18:00,23.277s,PASSED
Start listener action : beforeTestCase,Chrome 122.0.0.0,,,21-03-2024 08:17:37,21-03-2024 08:17:37,0.211s,PASSED
"runFeatureFile(""Include/features/Register.feature"")",Chrome 122.0.0.0,,,21-03-2024 08:17:37,21-03-2024 08:18:00,22.922s,PASSED
,,,,,,,
Test Cases/cucumber/Feature Login,Chrome 122.0.0.0,,,21-03-2024 08:18:00,21-03-2024 08:18:17,16.228s,PASSED
Start listener action : beforeTestCase,Chrome 122.0.0.0,,,21-03-2024 08:18:00,21-03-2024 08:18:00,0.000s,PASSED
"runFeatureFile(""Include/features/Login.feature"")",Chrome 122.0.0.0,,,21-03-2024 08:18:01,21-03-2024 08:18:17,16.029s,PASSED
,,,,,,,
Test Cases/cucumber/Feature Edit Barang,Chrome 122.0.0.0,,,21-03-2024 08:18:17,21-03-2024 08:19:46,1m - 29.024s,PASSED
Start listener action : beforeTestCase,Chrome 122.0.0.0,,,21-03-2024 08:18:17,21-03-2024 08:18:17,0.016s,PASSED
"runFeatureFile(""Include/features/EditProduct.feature"")",Chrome 122.0.0.0,,,21-03-2024 08:18:17,21-03-2024 08:19:46,1m - 28.900s,PASSED
,,,,,,,
Test Cases/cucumber/Feature Log Out,Chrome 122.0.0.0,,,21-03-2024 08:19:46,21-03-2024 08:19:54,8.207s,PASSED
Start listener action : beforeTestCase,Chrome 122.0.0.0,,,21-03-2024 08:19:46,21-03-2024 08:19:46,0.005s,PASSED
"runFeatureFile(""Include/features/LogOut.feature"")",Chrome 122.0.0.0,,,21-03-2024 08:19:46,21-03-2024 08:19:54,7.917s,PASSED
