Suite/Test/Step Name,Browser,Description,Tag,Start time,End time,Duration,Status
Feature Edit Barang,Chrome 122.0.0.0,,,21-02-2024 19:30:08,21-02-2024 19:32:39,2m - 30.563s,FAILED
,,,,,,,
Test Cases/Step Definition/Feature Edit Barang/EDTP002 - Pengguna edit barang dengan nama simbol,Chrome 122.0.0.0,,,21-02-2024 19:30:09,21-02-2024 19:30:24,15.217s,PASSED
Start listener action : beforeTestCase,Chrome 122.0.0.0,,,21-02-2024 19:30:09,21-02-2024 19:30:09,0.246s,PASSED
openBrowser(url),Chrome 122.0.0.0,,,21-02-2024 19:30:09,21-02-2024 19:30:12,2.957s,PASSED
"click(findTestObject(""Page_User Login/btn_untuk masukkan login""))",Chrome 122.0.0.0,,,21-02-2024 19:30:12,21-02-2024 19:30:13,1.035s,PASSED
"verifyElementVisible(findTestObject(""Page_User Login/label_Masuk""), STOP_ON_FAILURE)",Chrome 122.0.0.0,,,21-02-2024 19:30:13,21-02-2024 19:30:14,0.680s,PASSED
"verifyElementVisible(findTestObject(""Page_User Login/textfield_username""))",Chrome 122.0.0.0,,,21-02-2024 19:30:14,21-02-2024 19:30:14,0.318s,PASSED
"verifyElementVisible(findTestObject(""Page_User Login/textfield_password""))",Chrome 122.0.0.0,,,21-02-2024 19:30:14,21-02-2024 19:30:15,0.329s,PASSED
"verifyElementVisible(findTestObject(""Page_User Login/btn_Masuk""))",Chrome 122.0.0.0,,,21-02-2024 19:30:15,21-02-2024 19:30:15,0.319s,PASSED
"setText(findTestObject(""Page_User Login/textfield_username""), ""overlord.njoo@gmail.com"")",Chrome 122.0.0.0,,,21-02-2024 19:30:15,21-02-2024 19:30:16,0.699s,PASSED
"setEncryptedText(findTestObject(""Page_User Login/textfield_password""), ""JWDOtPzUpHberWoIJ37UJA=="")",Chrome 122.0.0.0,,,21-02-2024 19:30:16,21-02-2024 19:30:16,0.383s,PASSED
"click(findTestObject(""Page_User Login/btn_Masuk""))",Chrome 122.0.0.0,,,21-02-2024 19:30:16,21-02-2024 19:30:16,0.336s,PASSED
"click(findTestObject(""Page_Edit_Product/btn_list_barang""))",Chrome 122.0.0.0,,,21-02-2024 19:30:16,21-02-2024 19:30:17,1.109s,PASSED
"click(findTestObject(""Page_Edit_Product/div_testing      Hobi      Rp 100""))",Chrome 122.0.0.0,,,21-02-2024 19:30:17,21-02-2024 19:30:18,0.661s,PASSED
"click(findTestObject(""Page_Edit_Product/btn_Edit""))",Chrome 122.0.0.0,,,21-02-2024 19:30:18,21-02-2024 19:30:19,0.653s,PASSED
"setText(findTestObject(""Page_Edit_Product/textfield_nama_produk""), ""!@#"")",Chrome 122.0.0.0,,,21-02-2024 19:30:19,21-02-2024 19:30:20,1.000s,PASSED
"setText(findTestObject(""Page_Edit_Product/textfield_harga_produk""), ""1000000"")",Chrome 122.0.0.0,,,21-02-2024 19:30:20,21-02-2024 19:30:20,0.653s,PASSED
"selectOptionByValue(findTestObject(""Page_Edit_Product/select_Pilih KategoriHobiKendaraanBajuElekt_20972a""), ""2"", true)",Chrome 122.0.0.0,,,21-02-2024 19:30:20,21-02-2024 19:30:21,0.971s,PASSED
"setText(findTestObject(""Page_Edit_Product/textfield_deskripsi""), ""test deskripsi katalon"")",Chrome 122.0.0.0,,,21-02-2024 19:30:21,21-02-2024 19:30:22,0.668s,PASSED
"scrollToElement(findTestObject(""Page_Edit_Product/Images_Edit Product""), 0)",Chrome 122.0.0.0,,,21-02-2024 19:30:22,21-02-2024 19:30:22,0.322s,PASSED
"click(findTestObject(""Page_Edit_Product/btn_Terbitkan""))",Chrome 122.0.0.0,,,21-02-2024 19:30:22,21-02-2024 19:30:23,1.083s,PASSED
"verifyElementClickable(findTestObject(""Page_Edit_Product/btn_Edit""))",Chrome 122.0.0.0,,,21-02-2024 19:30:23,21-02-2024 19:30:24,0.307s,PASSED
closeBrowser(),Chrome 122.0.0.0,,,21-02-2024 19:30:24,21-02-2024 19:30:24,0.161s,PASSED
,,,,,,,
Test Cases/Step Definition/Feature Edit Barang/EDTP003 - Pengguna edit barang harga 0,Chrome 122.0.0.0,,,21-02-2024 19:30:24,21-02-2024 19:30:37,12.956s,PASSED
Start listener action : beforeTestCase,Chrome 122.0.0.0,,,21-02-2024 19:30:24,21-02-2024 19:30:24,0.010s,PASSED
openBrowser(url),Chrome 122.0.0.0,,,21-02-2024 19:30:24,21-02-2024 19:30:25,1.287s,PASSED
"click(findTestObject(""Page_User Login/btn_untuk masukkan login""))",Chrome 122.0.0.0,,,21-02-2024 19:30:25,21-02-2024 19:30:26,1.038s,PASSED
"verifyElementVisible(findTestObject(""Page_User Login/label_Masuk""), STOP_ON_FAILURE)",Chrome 122.0.0.0,,,21-02-2024 19:30:26,21-02-2024 19:30:27,0.531s,PASSED
"verifyElementVisible(findTestObject(""Page_User Login/textfield_username""))",Chrome 122.0.0.0,,,21-02-2024 19:30:27,21-02-2024 19:30:27,0.313s,PASSED
"verifyElementVisible(findTestObject(""Page_User Login/textfield_password""))",Chrome 122.0.0.0,,,21-02-2024 19:30:27,21-02-2024 19:30:28,0.291s,PASSED
"verifyElementVisible(findTestObject(""Page_User Login/btn_Masuk""))",Chrome 122.0.0.0,,,21-02-2024 19:30:28,21-02-2024 19:30:28,0.311s,PASSED
"setText(findTestObject(""Page_User Login/textfield_username""), ""overlord.njoo@gmail.com"")",Chrome 122.0.0.0,,,21-02-2024 19:30:28,21-02-2024 19:30:29,0.652s,PASSED
"setEncryptedText(findTestObject(""Page_User Login/textfield_password""), ""JWDOtPzUpHberWoIJ37UJA=="")",Chrome 122.0.0.0,,,21-02-2024 19:30:29,21-02-2024 19:30:29,0.369s,PASSED
"click(findTestObject(""Page_User Login/btn_Masuk""))",Chrome 122.0.0.0,,,21-02-2024 19:30:29,21-02-2024 19:30:29,0.326s,PASSED
"click(findTestObject(""Page_Edit_Product/btn_list_barang""))",Chrome 122.0.0.0,,,21-02-2024 19:30:29,21-02-2024 19:30:31,1.558s,PASSED
"click(findTestObject(""Page_Edit_Product/div_testing      Hobi      Rp 100""))",Chrome 122.0.0.0,,,21-02-2024 19:30:31,21-02-2024 19:30:31,0.651s,PASSED
"click(findTestObject(""Page_Edit_Product/btn_Edit""))",Chrome 122.0.0.0,,,21-02-2024 19:30:31,21-02-2024 19:30:32,0.664s,PASSED
"setText(findTestObject(""Page_Edit_Product/textfield_nama_produk""), ""edit product katalon negativ case ok"")",Chrome 122.0.0.0,,,21-02-2024 19:30:32,21-02-2024 19:30:33,1.049s,PASSED
"setText(findTestObject(""Page_Edit_Product/textfield_harga_produk""), ""0"")",Chrome 122.0.0.0,,,21-02-2024 19:30:33,21-02-2024 19:30:34,0.619s,PASSED
"selectOptionByValue(findTestObject(""Page_Edit_Product/select_Pilih KategoriHobiKendaraanBajuElekt_20972a""), ""2"", true)",Chrome 122.0.0.0,,,21-02-2024 19:30:34,21-02-2024 19:30:35,0.947s,PASSED
"setText(findTestObject(""Page_Edit_Product/textfield_deskripsi""), ""test deskripsi katalon"")",Chrome 122.0.0.0,,,21-02-2024 19:30:35,21-02-2024 19:30:35,0.639s,PASSED
"scrollToElement(findTestObject(""Page_Edit_Product/Images_Edit Product""), 0)",Chrome 122.0.0.0,,,21-02-2024 19:30:35,21-02-2024 19:30:36,0.285s,PASSED
"click(findTestObject(""Page_Edit_Product/btn_Terbitkan""))",Chrome 122.0.0.0,,,21-02-2024 19:30:36,21-02-2024 19:30:36,0.569s,PASSED
"verifyElementClickable(findTestObject(""Page_Edit_Product/btn_Edit""))",Chrome 122.0.0.0,,,21-02-2024 19:30:36,21-02-2024 19:30:37,0.519s,PASSED
closeBrowser(),Chrome 122.0.0.0,,,21-02-2024 19:30:37,21-02-2024 19:30:37,0.149s,PASSED
,,,,,,,
Test Cases/Step Definition/Feature Edit Barang/EDTP004 - Pengguna edit barang nama barang spasi angka,Chrome 122.0.0.0,,,21-02-2024 19:30:37,21-02-2024 19:30:49,12.358s,PASSED
Start listener action : beforeTestCase,Chrome 122.0.0.0,,,21-02-2024 19:30:37,21-02-2024 19:30:37,0.004s,PASSED
openBrowser(url),Chrome 122.0.0.0,,,21-02-2024 19:30:37,21-02-2024 19:30:39,1.862s,PASSED
"click(findTestObject(""Page_User Login/btn_untuk masukkan login""))",Chrome 122.0.0.0,,,21-02-2024 19:30:39,21-02-2024 19:30:39,0.332s,PASSED
"verifyElementVisible(findTestObject(""Page_User Login/label_Masuk""), STOP_ON_FAILURE)",Chrome 122.0.0.0,,,21-02-2024 19:30:39,21-02-2024 19:30:40,0.624s,PASSED
"verifyElementVisible(findTestObject(""Page_User Login/textfield_username""))",Chrome 122.0.0.0,,,21-02-2024 19:30:40,21-02-2024 19:30:40,0.292s,PASSED
"verifyElementVisible(findTestObject(""Page_User Login/textfield_password""))",Chrome 122.0.0.0,,,21-02-2024 19:30:40,21-02-2024 19:30:40,0.294s,PASSED
"verifyElementVisible(findTestObject(""Page_User Login/btn_Masuk""))",Chrome 122.0.0.0,,,21-02-2024 19:30:40,21-02-2024 19:30:41,0.294s,PASSED
"setText(findTestObject(""Page_User Login/textfield_username""), ""overlord.njoo@gmail.com"")",Chrome 122.0.0.0,,,21-02-2024 19:30:41,21-02-2024 19:30:41,0.656s,PASSED
"setEncryptedText(findTestObject(""Page_User Login/textfield_password""), ""JWDOtPzUpHberWoIJ37UJA=="")",Chrome 122.0.0.0,,,21-02-2024 19:30:41,21-02-2024 19:30:42,0.373s,PASSED
"click(findTestObject(""Page_User Login/btn_Masuk""))",Chrome 122.0.0.0,,,21-02-2024 19:30:42,21-02-2024 19:30:42,0.334s,PASSED
"click(findTestObject(""Page_Edit_Product/btn_list_barang""))",Chrome 122.0.0.0,,,21-02-2024 19:30:42,21-02-2024 19:30:43,1.085s,PASSED
"click(findTestObject(""Page_Edit_Product/div_testing      Hobi      Rp 100""))",Chrome 122.0.0.0,,,21-02-2024 19:30:43,21-02-2024 19:30:44,0.650s,PASSED
"click(findTestObject(""Page_Edit_Product/btn_Edit""))",Chrome 122.0.0.0,,,21-02-2024 19:30:44,21-02-2024 19:30:44,0.641s,PASSED
"setText(findTestObject(""Page_Edit_Product/textfield_nama_produk""), ""      120"")",Chrome 122.0.0.0,,,21-02-2024 19:30:44,21-02-2024 19:30:45,0.975s,PASSED
"setText(findTestObject(""Page_Edit_Product/textfield_harga_produk""), ""1000000"")",Chrome 122.0.0.0,,,21-02-2024 19:30:45,21-02-2024 19:30:46,0.635s,PASSED
"selectOptionByValue(findTestObject(""Page_Edit_Product/select_Pilih KategoriHobiKendaraanBajuElekt_20972a""), ""2"", true)",Chrome 122.0.0.0,,,21-02-2024 19:30:46,21-02-2024 19:30:47,0.926s,PASSED
"setText(findTestObject(""Page_Edit_Product/textfield_deskripsi""), ""test deskripsi katalon"")",Chrome 122.0.0.0,,,21-02-2024 19:30:47,21-02-2024 19:30:48,0.672s,PASSED
"scrollToElement(findTestObject(""Page_Edit_Product/Images_Edit Product""), 0)",Chrome 122.0.0.0,,,21-02-2024 19:30:48,21-02-2024 19:30:48,0.291s,PASSED
"click(findTestObject(""Page_Edit_Product/btn_Terbitkan""))",Chrome 122.0.0.0,,,21-02-2024 19:30:48,21-02-2024 19:30:49,0.548s,PASSED
"verifyElementClickable(findTestObject(""Page_Edit_Product/btn_Edit""))",Chrome 122.0.0.0,,,21-02-2024 19:30:49,21-02-2024 19:30:49,0.554s,PASSED
closeBrowser(),Chrome 122.0.0.0,,,21-02-2024 19:30:49,21-02-2024 19:30:49,0.158s,PASSED
,,,,,,,
Test Cases/Step Definition/Feature Edit Barang/EDTP005 - Pengguna edit barang nama barang spasi huruf,Chrome 122.0.0.0,,,21-02-2024 19:30:49,21-02-2024 19:31:02,13.088s,PASSED
Start listener action : beforeTestCase,Chrome 122.0.0.0,,,21-02-2024 19:30:49,21-02-2024 19:30:49,0.003s,PASSED
openBrowser(url),Chrome 122.0.0.0,,,21-02-2024 19:30:49,21-02-2024 19:30:52,2.577s,PASSED
"click(findTestObject(""Page_User Login/btn_untuk masukkan login""))",Chrome 122.0.0.0,,,21-02-2024 19:30:52,21-02-2024 19:30:52,0.337s,PASSED
"verifyElementVisible(findTestObject(""Page_User Login/label_Masuk""), STOP_ON_FAILURE)",Chrome 122.0.0.0,,,21-02-2024 19:30:52,21-02-2024 19:30:53,0.625s,PASSED
"verifyElementVisible(findTestObject(""Page_User Login/textfield_username""))",Chrome 122.0.0.0,,,21-02-2024 19:30:53,21-02-2024 19:30:53,0.300s,PASSED
"verifyElementVisible(findTestObject(""Page_User Login/textfield_password""))",Chrome 122.0.0.0,,,21-02-2024 19:30:53,21-02-2024 19:30:54,0.299s,PASSED
"verifyElementVisible(findTestObject(""Page_User Login/btn_Masuk""))",Chrome 122.0.0.0,,,21-02-2024 19:30:54,21-02-2024 19:30:54,0.297s,PASSED
"setText(findTestObject(""Page_User Login/textfield_username""), ""overlord.njoo@gmail.com"")",Chrome 122.0.0.0,,,21-02-2024 19:30:54,21-02-2024 19:30:55,0.661s,PASSED
"setEncryptedText(findTestObject(""Page_User Login/textfield_password""), ""JWDOtPzUpHberWoIJ37UJA=="")",Chrome 122.0.0.0,,,21-02-2024 19:30:55,21-02-2024 19:30:55,0.359s,PASSED
"click(findTestObject(""Page_User Login/btn_Masuk""))",Chrome 122.0.0.0,,,21-02-2024 19:30:55,21-02-2024 19:30:55,0.313s,PASSED
"click(findTestObject(""Page_Edit_Product/btn_list_barang""))",Chrome 122.0.0.0,,,21-02-2024 19:30:55,21-02-2024 19:30:56,1.087s,PASSED
"click(findTestObject(""Page_Edit_Product/div_testing      Hobi      Rp 100""))",Chrome 122.0.0.0,,,21-02-2024 19:30:56,21-02-2024 19:30:57,0.651s,PASSED
"click(findTestObject(""Page_Edit_Product/btn_Edit""))",Chrome 122.0.0.0,,,21-02-2024 19:30:57,21-02-2024 19:30:58,0.657s,PASSED
"setText(findTestObject(""Page_Edit_Product/textfield_nama_produk""), ""      Product awal spasi"")",Chrome 122.0.0.0,,,21-02-2024 19:30:58,21-02-2024 19:30:59,0.989s,PASSED
"setText(findTestObject(""Page_Edit_Product/textfield_harga_produk""), ""1000000"")",Chrome 122.0.0.0,,,21-02-2024 19:30:59,21-02-2024 19:30:59,0.642s,PASSED
"selectOptionByValue(findTestObject(""Page_Edit_Product/select_Pilih KategoriHobiKendaraanBajuElekt_20972a""), ""2"", true)",Chrome 122.0.0.0,,,21-02-2024 19:30:59,21-02-2024 19:31:00,0.905s,PASSED
"setText(findTestObject(""Page_Edit_Product/textfield_deskripsi""), ""test deskripsi katalon"")",Chrome 122.0.0.0,,,21-02-2024 19:31:00,21-02-2024 19:31:01,0.661s,PASSED
"scrollToElement(findTestObject(""Page_Edit_Product/Images_Edit Product""), 0)",Chrome 122.0.0.0,,,21-02-2024 19:31:01,21-02-2024 19:31:01,0.292s,PASSED
"click(findTestObject(""Page_Edit_Product/btn_Terbitkan""))",Chrome 122.0.0.0,,,21-02-2024 19:31:01,21-02-2024 19:31:02,0.750s,PASSED
"verifyElementClickable(findTestObject(""Page_Edit_Product/btn_Edit""))",Chrome 122.0.0.0,,,21-02-2024 19:31:02,21-02-2024 19:31:02,0.302s,PASSED
closeBrowser(),Chrome 122.0.0.0,,,21-02-2024 19:31:02,21-02-2024 19:31:02,0.158s,PASSED
,,,,,,,
Test Cases/Step Definition/Feature Edit Barang/EDTP006 - Pengguna edit barang nama barang spasi symbol,Chrome 122.0.0.0,,,21-02-2024 19:31:02,21-02-2024 19:31:15,12.243s,PASSED
Start listener action : beforeTestCase,Chrome 122.0.0.0,,,21-02-2024 19:31:02,21-02-2024 19:31:02,0.005s,PASSED
openBrowser(url),Chrome 122.0.0.0,,,21-02-2024 19:31:02,21-02-2024 19:31:04,1.716s,PASSED
"click(findTestObject(""Page_User Login/btn_untuk masukkan login""))",Chrome 122.0.0.0,,,21-02-2024 19:31:04,21-02-2024 19:31:05,0.343s,PASSED
"verifyElementVisible(findTestObject(""Page_User Login/label_Masuk""), STOP_ON_FAILURE)",Chrome 122.0.0.0,,,21-02-2024 19:31:05,21-02-2024 19:31:05,0.630s,PASSED
"verifyElementVisible(findTestObject(""Page_User Login/textfield_username""))",Chrome 122.0.0.0,,,21-02-2024 19:31:05,21-02-2024 19:31:05,0.297s,PASSED
"verifyElementVisible(findTestObject(""Page_User Login/textfield_password""))",Chrome 122.0.0.0,,,21-02-2024 19:31:05,21-02-2024 19:31:06,0.308s,PASSED
"verifyElementVisible(findTestObject(""Page_User Login/btn_Masuk""))",Chrome 122.0.0.0,,,21-02-2024 19:31:06,21-02-2024 19:31:06,0.311s,PASSED
"setText(findTestObject(""Page_User Login/textfield_username""), ""overlord.njoo@gmail.com"")",Chrome 122.0.0.0,,,21-02-2024 19:31:06,21-02-2024 19:31:07,0.658s,PASSED
"setEncryptedText(findTestObject(""Page_User Login/textfield_password""), ""JWDOtPzUpHberWoIJ37UJA=="")",Chrome 122.0.0.0,,,21-02-2024 19:31:07,21-02-2024 19:31:07,0.347s,PASSED
"click(findTestObject(""Page_User Login/btn_Masuk""))",Chrome 122.0.0.0,,,21-02-2024 19:31:07,21-02-2024 19:31:07,0.317s,PASSED
"click(findTestObject(""Page_Edit_Product/btn_list_barang""))",Chrome 122.0.0.0,,,21-02-2024 19:31:07,21-02-2024 19:31:08,1.082s,PASSED
"click(findTestObject(""Page_Edit_Product/div_testing      Hobi      Rp 100""))",Chrome 122.0.0.0,,,21-02-2024 19:31:08,21-02-2024 19:31:09,0.642s,PASSED
"click(findTestObject(""Page_Edit_Product/btn_Edit""))",Chrome 122.0.0.0,,,21-02-2024 19:31:09,21-02-2024 19:31:10,0.647s,PASSED
"setText(findTestObject(""Page_Edit_Product/textfield_nama_produk""), ""      @#@"")",Chrome 122.0.0.0,,,21-02-2024 19:31:10,21-02-2024 19:31:11,0.960s,PASSED
"setText(findTestObject(""Page_Edit_Product/textfield_harga_produk""), ""1000000"")",Chrome 122.0.0.0,,,21-02-2024 19:31:11,21-02-2024 19:31:11,0.645s,PASSED
"selectOptionByValue(findTestObject(""Page_Edit_Product/select_Pilih KategoriHobiKendaraanBajuElekt_20972a""), ""2"", true)",Chrome 122.0.0.0,,,21-02-2024 19:31:11,21-02-2024 19:31:12,0.913s,PASSED
"setText(findTestObject(""Page_Edit_Product/textfield_deskripsi""), ""test deskripsi katalon"")",Chrome 122.0.0.0,,,21-02-2024 19:31:12,21-02-2024 19:31:13,0.655s,PASSED
"scrollToElement(findTestObject(""Page_Edit_Product/Images_Edit Product""), 0)",Chrome 122.0.0.0,,,21-02-2024 19:31:13,21-02-2024 19:31:13,0.293s,PASSED
"click(findTestObject(""Page_Edit_Product/btn_Terbitkan""))",Chrome 122.0.0.0,,,21-02-2024 19:31:13,21-02-2024 19:31:14,0.656s,PASSED
"verifyElementClickable(findTestObject(""Page_Edit_Product/btn_Edit""))",Chrome 122.0.0.0,,,21-02-2024 19:31:14,21-02-2024 19:31:14,0.529s,PASSED
closeBrowser(),Chrome 122.0.0.0,,,21-02-2024 19:31:14,21-02-2024 19:31:15,0.163s,PASSED
,,,,,,,
Test Cases/Step Definition/Feature Edit Barang/EDTP007 - Pengguna edit barang harga minus,Chrome 122.0.0.0,,,21-02-2024 19:31:15,21-02-2024 19:31:27,12.610s,PASSED
Start listener action : beforeTestCase,Chrome 122.0.0.0,,,21-02-2024 19:31:15,21-02-2024 19:31:15,0.005s,PASSED
openBrowser(url),Chrome 122.0.0.0,,,21-02-2024 19:31:15,21-02-2024 19:31:17,2.061s,PASSED
"click(findTestObject(""Page_User Login/btn_untuk masukkan login""))",Chrome 122.0.0.0,,,21-02-2024 19:31:17,21-02-2024 19:31:17,0.341s,PASSED
"verifyElementVisible(findTestObject(""Page_User Login/label_Masuk""), STOP_ON_FAILURE)",Chrome 122.0.0.0,,,21-02-2024 19:31:17,21-02-2024 19:31:18,0.632s,PASSED
"verifyElementVisible(findTestObject(""Page_User Login/textfield_username""))",Chrome 122.0.0.0,,,21-02-2024 19:31:18,21-02-2024 19:31:18,0.293s,PASSED
"verifyElementVisible(findTestObject(""Page_User Login/textfield_password""))",Chrome 122.0.0.0,,,21-02-2024 19:31:18,21-02-2024 19:31:18,0.308s,PASSED
"verifyElementVisible(findTestObject(""Page_User Login/btn_Masuk""))",Chrome 122.0.0.0,,,21-02-2024 19:31:18,21-02-2024 19:31:19,0.297s,PASSED
"setText(findTestObject(""Page_User Login/textfield_username""), ""overlord.njoo@gmail.com"")",Chrome 122.0.0.0,,,21-02-2024 19:31:19,21-02-2024 19:31:19,0.655s,PASSED
"setEncryptedText(findTestObject(""Page_User Login/textfield_password""), ""JWDOtPzUpHberWoIJ37UJA=="")",Chrome 122.0.0.0,,,21-02-2024 19:31:19,21-02-2024 19:31:20,0.363s,PASSED
"click(findTestObject(""Page_User Login/btn_Masuk""))",Chrome 122.0.0.0,,,21-02-2024 19:31:20,21-02-2024 19:31:20,0.319s,PASSED
"click(findTestObject(""Page_Edit_Product/btn_list_barang""))",Chrome 122.0.0.0,,,21-02-2024 19:31:20,21-02-2024 19:31:21,1.076s,PASSED
"click(findTestObject(""Page_Edit_Product/div_testing      Hobi      Rp 100""))",Chrome 122.0.0.0,,,21-02-2024 19:31:21,21-02-2024 19:31:22,0.652s,PASSED
"click(findTestObject(""Page_Edit_Product/btn_Edit""))",Chrome 122.0.0.0,,,21-02-2024 19:31:22,21-02-2024 19:31:22,0.642s,PASSED
"setText(findTestObject(""Page_Edit_Product/textfield_nama_produk""), ""edit harga product katalon negativ case ok"")",Chrome 122.0.0.0,,,21-02-2024 19:31:22,21-02-2024 19:31:23,1.015s,PASSED
"setText(findTestObject(""Page_Edit_Product/textfield_harga_produk""), ""-1000"")",Chrome 122.0.0.0,,,21-02-2024 19:31:23,21-02-2024 19:31:24,0.614s,PASSED
"selectOptionByValue(findTestObject(""Page_Edit_Product/select_Pilih KategoriHobiKendaraanBajuElekt_20972a""), ""2"", true)",Chrome 122.0.0.0,,,21-02-2024 19:31:24,21-02-2024 19:31:25,0.911s,PASSED
"setText(findTestObject(""Page_Edit_Product/textfield_deskripsi""), ""test deskripsi katalon"")",Chrome 122.0.0.0,,,21-02-2024 19:31:25,21-02-2024 19:31:26,0.661s,PASSED
"scrollToElement(findTestObject(""Page_Edit_Product/Images_Edit Product""), 0)",Chrome 122.0.0.0,,,21-02-2024 19:31:26,21-02-2024 19:31:26,0.293s,PASSED
"click(findTestObject(""Page_Edit_Product/btn_Terbitkan""))",Chrome 122.0.0.0,,,21-02-2024 19:31:26,21-02-2024 19:31:27,0.863s,PASSED
"verifyElementClickable(findTestObject(""Page_Edit_Product/btn_Edit""))",Chrome 122.0.0.0,,,21-02-2024 19:31:27,21-02-2024 19:31:27,0.292s,PASSED
closeBrowser(),Chrome 122.0.0.0,,,21-02-2024 19:31:27,21-02-2024 19:31:27,0.211s,PASSED
,,,,,,,
Test Cases/Step Definition/Feature Edit Barang/EDTP008 - Pengguna edit barang dengan keterangan kosong,Chrome 122.0.0.0,,,21-02-2024 19:31:27,21-02-2024 19:31:40,12.393s,PASSED
Start listener action : beforeTestCase,Chrome 122.0.0.0,,,21-02-2024 19:31:27,21-02-2024 19:31:27,0.004s,PASSED
openBrowser(url),Chrome 122.0.0.0,,,21-02-2024 19:31:27,21-02-2024 19:31:29,1.781s,PASSED
"click(findTestObject(""Page_User Login/btn_untuk masukkan login""))",Chrome 122.0.0.0,,,21-02-2024 19:31:29,21-02-2024 19:31:30,0.327s,PASSED
"verifyElementVisible(findTestObject(""Page_User Login/label_Masuk""), STOP_ON_FAILURE)",Chrome 122.0.0.0,,,21-02-2024 19:31:30,21-02-2024 19:31:30,0.631s,PASSED
"verifyElementVisible(findTestObject(""Page_User Login/textfield_username""))",Chrome 122.0.0.0,,,21-02-2024 19:31:30,21-02-2024 19:31:30,0.294s,PASSED
"verifyElementVisible(findTestObject(""Page_User Login/textfield_password""))",Chrome 122.0.0.0,,,21-02-2024 19:31:30,21-02-2024 19:31:31,0.299s,PASSED
"verifyElementVisible(findTestObject(""Page_User Login/btn_Masuk""))",Chrome 122.0.0.0,,,21-02-2024 19:31:31,21-02-2024 19:31:31,0.302s,PASSED
"setText(findTestObject(""Page_User Login/textfield_username""), ""overlord.njoo@gmail.com"")",Chrome 122.0.0.0,,,21-02-2024 19:31:31,21-02-2024 19:31:32,0.658s,PASSED
"setEncryptedText(findTestObject(""Page_User Login/textfield_password""), ""JWDOtPzUpHberWoIJ37UJA=="")",Chrome 122.0.0.0,,,21-02-2024 19:31:32,21-02-2024 19:31:32,0.350s,PASSED
"click(findTestObject(""Page_User Login/btn_Masuk""))",Chrome 122.0.0.0,,,21-02-2024 19:31:32,21-02-2024 19:31:32,0.322s,PASSED
"click(findTestObject(""Page_Edit_Product/btn_list_barang""))",Chrome 122.0.0.0,,,21-02-2024 19:31:32,21-02-2024 19:31:33,1.078s,PASSED
"click(findTestObject(""Page_Edit_Product/div_testing      Hobi      Rp 100""))",Chrome 122.0.0.0,,,21-02-2024 19:31:33,21-02-2024 19:31:34,0.653s,PASSED
"click(findTestObject(""Page_Edit_Product/btn_Edit""))",Chrome 122.0.0.0,,,21-02-2024 19:31:34,21-02-2024 19:31:35,0.647s,PASSED
"setText(findTestObject(""Page_Edit_Product/textfield_nama_produk""), ""edit product katalon negativ case ok"")",Chrome 122.0.0.0,,,21-02-2024 19:31:35,21-02-2024 19:31:36,1.231s,PASSED
"setText(findTestObject(""Page_Edit_Product/textfield_harga_produk""), ""1000000"")",Chrome 122.0.0.0,,,21-02-2024 19:31:36,21-02-2024 19:31:37,0.624s,PASSED
"selectOptionByValue(findTestObject(""Page_Edit_Product/select_Pilih KategoriHobiKendaraanBajuElekt_20972a""), ""2"", true)",Chrome 122.0.0.0,,,21-02-2024 19:31:37,21-02-2024 19:31:38,0.893s,PASSED
"setText(findTestObject(""Page_Edit_Product/textfield_deskripsi""), """")",Chrome 122.0.0.0,,,21-02-2024 19:31:38,21-02-2024 19:31:38,0.599s,PASSED
"scrollToElement(findTestObject(""Page_Edit_Product/Images_Edit Product""), 0)",Chrome 122.0.0.0,,,21-02-2024 19:31:38,21-02-2024 19:31:38,0.290s,PASSED
"click(findTestObject(""Page_Edit_Product/btn_Terbitkan""))",Chrome 122.0.0.0,,,21-02-2024 19:31:38,21-02-2024 19:31:39,0.720s,PASSED
"verifyElementVisible(findTestObject(""Page_Edit_Product/notif_deskripsi tidak boleh kosong""))",Chrome 122.0.0.0,,,21-02-2024 19:31:39,21-02-2024 19:31:39,0.301s,PASSED
closeBrowser(),Chrome 122.0.0.0,,,21-02-2024 19:31:39,21-02-2024 19:31:40,0.151s,PASSED
,,,,,,,
Test Cases/Step Definition/Feature Edit Barang/EDTP009 - Pengguna edit barang dengan nama barang kosong,Chrome 122.0.0.0,,,21-02-2024 19:31:40,21-02-2024 19:32:08,28.190s,FAILED
Start listener action : beforeTestCase,Chrome 122.0.0.0,,,21-02-2024 19:31:40,21-02-2024 19:31:40,0.003s,PASSED
openBrowser(url),Chrome 122.0.0.0,,,21-02-2024 19:31:40,21-02-2024 19:32:08,27.951s,PASSED
"click(findTestObject(""Page_User Login/btn_untuk masukkan login""))",Chrome 122.0.0.0,,,21-02-2024 19:32:08,21-02-2024 19:32:08,0.120s,FAILED
,,,,,,,
Test Cases/Step Definition/Feature Edit Barang/EDTP010 - Pengguna edit barang dengan harga barang kosong,Chrome 122.0.0.0,,,21-02-2024 19:32:08,21-02-2024 19:32:21,12.768s,PASSED
Start listener action : beforeTestCase,Chrome 122.0.0.0,,,21-02-2024 19:32:08,21-02-2024 19:32:08,0.005s,PASSED
openBrowser(url),Chrome 122.0.0.0,,,21-02-2024 19:32:08,21-02-2024 19:32:10,1.815s,PASSED
"click(findTestObject(""Page_User Login/btn_untuk masukkan login""))",Chrome 122.0.0.0,,,21-02-2024 19:32:10,21-02-2024 19:32:10,0.328s,PASSED
"verifyElementVisible(findTestObject(""Page_User Login/label_Masuk""), STOP_ON_FAILURE)",Chrome 122.0.0.0,,,21-02-2024 19:32:10,21-02-2024 19:32:11,0.623s,PASSED
"verifyElementVisible(findTestObject(""Page_User Login/textfield_username""))",Chrome 122.0.0.0,,,21-02-2024 19:32:11,21-02-2024 19:32:11,0.299s,PASSED
"verifyElementVisible(findTestObject(""Page_User Login/textfield_password""))",Chrome 122.0.0.0,,,21-02-2024 19:32:11,21-02-2024 19:32:11,0.285s,PASSED
"verifyElementVisible(findTestObject(""Page_User Login/btn_Masuk""))",Chrome 122.0.0.0,,,21-02-2024 19:32:11,21-02-2024 19:32:12,0.297s,PASSED
"setText(findTestObject(""Page_User Login/textfield_username""), ""overlord.njoo@gmail.com"")",Chrome 122.0.0.0,,,21-02-2024 19:32:12,21-02-2024 19:32:12,0.664s,PASSED
"setEncryptedText(findTestObject(""Page_User Login/textfield_password""), ""JWDOtPzUpHberWoIJ37UJA=="")",Chrome 122.0.0.0,,,21-02-2024 19:32:12,21-02-2024 19:32:13,0.364s,PASSED
"click(findTestObject(""Page_User Login/btn_Masuk""))",Chrome 122.0.0.0,,,21-02-2024 19:32:13,21-02-2024 19:32:13,0.316s,PASSED
"click(findTestObject(""Page_Edit_Product/btn_list_barang""))",Chrome 122.0.0.0,,,21-02-2024 19:32:13,21-02-2024 19:32:15,1.630s,PASSED
"click(findTestObject(""Page_Edit_Product/div_testing      Hobi      Rp 100""))",Chrome 122.0.0.0,,,21-02-2024 19:32:15,21-02-2024 19:32:15,0.642s,PASSED
"click(findTestObject(""Page_Edit_Product/btn_Edit""))",Chrome 122.0.0.0,,,21-02-2024 19:32:15,21-02-2024 19:32:16,0.643s,PASSED
"setText(findTestObject(""Page_Edit_Product/textfield_nama_produk""), ""edit product katalon negativ case ok"")",Chrome 122.0.0.0,,,21-02-2024 19:32:16,21-02-2024 19:32:17,1.056s,PASSED
"setText(findTestObject(""Page_Edit_Product/textfield_harga_produk""), """")",Chrome 122.0.0.0,,,21-02-2024 19:32:17,21-02-2024 19:32:17,0.628s,PASSED
"selectOptionByValue(findTestObject(""Page_Edit_Product/select_Pilih KategoriHobiKendaraanBajuElekt_20972a""), ""2"", true)",Chrome 122.0.0.0,,,21-02-2024 19:32:17,21-02-2024 19:32:18,0.910s,PASSED
"setText(findTestObject(""Page_Edit_Product/textfield_deskripsi""), ""test deskripsi katalon"")",Chrome 122.0.0.0,,,21-02-2024 19:32:18,21-02-2024 19:32:19,0.634s,PASSED
"scrollToElement(findTestObject(""Page_Edit_Product/Images_Edit Product""), 0)",Chrome 122.0.0.0,,,21-02-2024 19:32:19,21-02-2024 19:32:19,0.268s,PASSED
"click(findTestObject(""Page_Edit_Product/btn_Terbitkan""))",Chrome 122.0.0.0,,,21-02-2024 19:32:19,21-02-2024 19:32:20,0.797s,PASSED
"verifyElementVisible(findTestObject(""Page_Edit_Product/notif_harga tidak boleh kosong""))",Chrome 122.0.0.0,,,21-02-2024 19:32:20,21-02-2024 19:32:20,0.302s,PASSED
closeBrowser(),Chrome 122.0.0.0,,,21-02-2024 19:32:20,21-02-2024 19:32:21,0.152s,PASSED
,,,,,,,
Test Cases/Step Definition/Feature Edit Barang/EDTP001 - Pengguna edit barang,Chrome 122.0.0.0,,,21-02-2024 19:32:21,21-02-2024 19:32:39,18.427s,PASSED
Start listener action : beforeTestCase,Chrome 122.0.0.0,,,21-02-2024 19:32:21,21-02-2024 19:32:21,0.003s,PASSED
openBrowser(url),Chrome 122.0.0.0,,,21-02-2024 19:32:21,21-02-2024 19:32:23,2.275s,PASSED
"click(findTestObject(""Page_User Login/btn_untuk masukkan login""))",Chrome 122.0.0.0,,,21-02-2024 19:32:23,21-02-2024 19:32:23,0.331s,PASSED
"verifyElementVisible(findTestObject(""Page_User Login/label_Masuk""), STOP_ON_FAILURE)",Chrome 122.0.0.0,,,21-02-2024 19:32:23,21-02-2024 19:32:24,0.616s,PASSED
"verifyElementVisible(findTestObject(""Page_User Login/textfield_username""))",Chrome 122.0.0.0,,,21-02-2024 19:32:24,21-02-2024 19:32:24,0.293s,PASSED
"verifyElementVisible(findTestObject(""Page_User Login/textfield_password""))",Chrome 122.0.0.0,,,21-02-2024 19:32:24,21-02-2024 19:32:24,0.291s,PASSED
"verifyElementVisible(findTestObject(""Page_User Login/btn_Masuk""))",Chrome 122.0.0.0,,,21-02-2024 19:32:24,21-02-2024 19:32:25,0.295s,PASSED
"setText(findTestObject(""Page_User Login/textfield_username""), ""overlord.njoo@gmail.com"")",Chrome 122.0.0.0,,,21-02-2024 19:32:25,21-02-2024 19:32:25,0.632s,PASSED
"setEncryptedText(findTestObject(""Page_User Login/textfield_password""), ""JWDOtPzUpHberWoIJ37UJA=="")",Chrome 122.0.0.0,,,21-02-2024 19:32:25,21-02-2024 19:32:26,0.329s,PASSED
"click(findTestObject(""Page_User Login/btn_Masuk""))",Chrome 122.0.0.0,,,21-02-2024 19:32:26,21-02-2024 19:32:26,0.325s,PASSED
"click(findTestObject(""Page_Edit_Product/btn_list_barang""))",Chrome 122.0.0.0,,,21-02-2024 19:32:26,21-02-2024 19:32:27,1.097s,PASSED
"click(findTestObject(""Page_Edit_Product/div_testing      Hobi      Rp 100""))",Chrome 122.0.0.0,,,21-02-2024 19:32:27,21-02-2024 19:32:28,0.643s,PASSED
"click(findTestObject(""Page_Edit_Product/btn_Edit""))",Chrome 122.0.0.0,,,21-02-2024 19:32:28,21-02-2024 19:32:28,0.650s,PASSED
"setText(findTestObject(""Page_Edit_Product/textfield_nama_produk""), ""edit product katalon positif case ok"")",Chrome 122.0.0.0,,,21-02-2024 19:32:28,21-02-2024 19:32:29,0.984s,PASSED
"setText(findTestObject(""Page_Edit_Product/textfield_harga_produk""), ""1000000"")",Chrome 122.0.0.0,,,21-02-2024 19:32:29,21-02-2024 19:32:30,0.617s,PASSED
"selectOptionByValue(findTestObject(""Page_Edit_Product/select_Pilih KategoriHobiKendaraanBajuElekt_20972a""), ""3"", true)",Chrome 122.0.0.0,,,21-02-2024 19:32:30,21-02-2024 19:32:31,0.953s,PASSED
"setText(findTestObject(""Page_Edit_Product/textfield_deskripsi""), ""test deskripsi katalon"")",Chrome 122.0.0.0,,,21-02-2024 19:32:31,21-02-2024 19:32:32,0.681s,PASSED
"scrollToElement(findTestObject(""Page_Edit_Product/Images_Edit Product""), 0)",Chrome 122.0.0.0,,,21-02-2024 19:32:32,21-02-2024 19:32:32,0.298s,PASSED
"file_upload.FileUpload.uploadFile(findTestObject(""Page_Edit_Product/Images_Edit Product""), ""C:\Binar Academy\1.jpg"")",Chrome 122.0.0.0,,,21-02-2024 19:32:32,21-02-2024 19:32:37,4.592s,PASSED
"click(findTestObject(""Page_Edit_Product/btn_Terbitkan""))",Chrome 122.0.0.0,,,21-02-2024 19:32:37,21-02-2024 19:32:39,1.918s,PASSED
"verifyElementClickable(findTestObject(""Page_Edit_Product/btn_Edit""))",Chrome 122.0.0.0,,,21-02-2024 19:32:39,21-02-2024 19:32:39,0.311s,PASSED
closeBrowser(),Chrome 122.0.0.0,,,21-02-2024 19:32:39,21-02-2024 19:32:39,0.151s,PASSED
