Suite/Test/Step Name,Browser,Description,Tag,Start time,End time,Duration,Status
Feature Edit Barang,Chrome 121.0.0.0,,,18-02-2024 15:26:04,18-02-2024 15:27:41,1m - 37.851s,PASSED
,,,,,,,
Test Cases/Step Definition/Feature Edit Barang/EDTP002 - Pengguna edit barang dengan nama simbol,Chrome 121.0.0.0,,,18-02-2024 15:26:04,18-02-2024 15:26:19,15.257s,PASSED
openBrowser(url),Chrome 121.0.0.0,,,18-02-2024 15:26:04,18-02-2024 15:26:08,3.429s,PASSED
"click(findTestObject(""Page_User Login/btn_untuk masukkan login""))",Chrome 121.0.0.0,,,18-02-2024 15:26:08,18-02-2024 15:26:08,0.422s,PASSED
"verifyElementVisible(findTestObject(""Page_User Login/label_Masuk""), STOP_ON_FAILURE)",Chrome 121.0.0.0,,,18-02-2024 15:26:08,18-02-2024 15:26:09,0.668s,PASSED
"verifyElementVisible(findTestObject(""Page_User Login/textfield_username""))",Chrome 121.0.0.0,,,18-02-2024 15:26:09,18-02-2024 15:26:09,0.306s,PASSED
"verifyElementVisible(findTestObject(""Page_User Login/textfield_password""))",Chrome 121.0.0.0,,,18-02-2024 15:26:09,18-02-2024 15:26:09,0.309s,PASSED
"verifyElementVisible(findTestObject(""Page_User Login/btn_Masuk""))",Chrome 121.0.0.0,,,18-02-2024 15:26:09,18-02-2024 15:26:10,0.318s,PASSED
"setText(findTestObject(""Page_User Login/textfield_username""), ""overlord.njoo@gmail.com"")",Chrome 121.0.0.0,,,18-02-2024 15:26:10,18-02-2024 15:26:10,0.661s,PASSED
"setEncryptedText(findTestObject(""Page_User Login/textfield_password""), ""JWDOtPzUpHberWoIJ37UJA=="")",Chrome 121.0.0.0,,,18-02-2024 15:26:10,18-02-2024 15:26:11,0.372s,PASSED
"click(findTestObject(""Page_User Login/btn_Masuk""))",Chrome 121.0.0.0,,,18-02-2024 15:26:11,18-02-2024 15:26:11,0.354s,PASSED
"click(findTestObject(""Page_Edit_Product/btn_list_barang""))",Chrome 121.0.0.0,,,18-02-2024 15:26:11,18-02-2024 15:26:12,1.090s,PASSED
"click(findTestObject(""Page_Edit_Product/div_testing      Hobi      Rp 100""))",Chrome 121.0.0.0,,,18-02-2024 15:26:12,18-02-2024 15:26:13,0.642s,PASSED
"click(findTestObject(""Page_Edit_Product/btn_Edit""))",Chrome 121.0.0.0,,,18-02-2024 15:26:13,18-02-2024 15:26:13,0.661s,PASSED
"setText(findTestObject(""Page_Edit_Product/textfield_nama_produk""), ""!@#"")",Chrome 121.0.0.0,,,18-02-2024 15:26:13,18-02-2024 15:26:14,0.950s,PASSED
"setText(findTestObject(""Page_Edit_Product/textfield_harga_produk""), ""1000000"")",Chrome 121.0.0.0,,,18-02-2024 15:26:14,18-02-2024 15:26:15,0.638s,PASSED
"setText(findTestObject(""Page_Edit_Product/textfield_deskripsi""), ""test deskripsi katalon"")",Chrome 121.0.0.0,,,18-02-2024 15:26:15,18-02-2024 15:26:16,0.661s,PASSED
"click(findTestObject(""Page_Edit_Product/btn_Terbitkan""))",Chrome 121.0.0.0,,,18-02-2024 15:26:16,18-02-2024 15:26:18,2.892s,PASSED
"verifyElementClickable(findTestObject(""Page_Edit_Product/btn_Edit""))",Chrome 121.0.0.0,,,18-02-2024 15:26:18,18-02-2024 15:26:19,0.590s,PASSED
,,,,,,,
Test Cases/Step Definition/Feature Edit Barang/EDTP003 - Pengguna edit barang harga 0,Chrome 121.0.0.0,,,18-02-2024 15:26:19,18-02-2024 15:26:33,14.001s,PASSED
openBrowser(url),Chrome 121.0.0.0,,,18-02-2024 15:26:19,18-02-2024 15:26:21,2.020s,PASSED
"click(findTestObject(""Page_User Login/btn_untuk masukkan login""))",Chrome 121.0.0.0,,,18-02-2024 15:26:21,18-02-2024 15:26:22,0.329s,PASSED
"verifyElementVisible(findTestObject(""Page_User Login/label_Masuk""), STOP_ON_FAILURE)",Chrome 121.0.0.0,,,18-02-2024 15:26:22,18-02-2024 15:26:22,0.626s,PASSED
"verifyElementVisible(findTestObject(""Page_User Login/textfield_username""))",Chrome 121.0.0.0,,,18-02-2024 15:26:22,18-02-2024 15:26:22,0.296s,PASSED
"verifyElementVisible(findTestObject(""Page_User Login/textfield_password""))",Chrome 121.0.0.0,,,18-02-2024 15:26:22,18-02-2024 15:26:23,0.297s,PASSED
"verifyElementVisible(findTestObject(""Page_User Login/btn_Masuk""))",Chrome 121.0.0.0,,,18-02-2024 15:26:23,18-02-2024 15:26:23,0.307s,PASSED
"setText(findTestObject(""Page_User Login/textfield_username""), ""overlord.njoo@gmail.com"")",Chrome 121.0.0.0,,,18-02-2024 15:26:23,18-02-2024 15:26:24,0.647s,PASSED
"setEncryptedText(findTestObject(""Page_User Login/textfield_password""), ""JWDOtPzUpHberWoIJ37UJA=="")",Chrome 121.0.0.0,,,18-02-2024 15:26:24,18-02-2024 15:26:24,0.358s,PASSED
"click(findTestObject(""Page_User Login/btn_Masuk""))",Chrome 121.0.0.0,,,18-02-2024 15:26:24,18-02-2024 15:26:24,0.327s,PASSED
"click(findTestObject(""Page_Edit_Product/btn_list_barang""))",Chrome 121.0.0.0,,,18-02-2024 15:26:24,18-02-2024 15:26:26,1.524s,PASSED
"click(findTestObject(""Page_Edit_Product/div_testing      Hobi      Rp 100""))",Chrome 121.0.0.0,,,18-02-2024 15:26:26,18-02-2024 15:26:27,0.636s,PASSED
"click(findTestObject(""Page_Edit_Product/btn_Edit""))",Chrome 121.0.0.0,,,18-02-2024 15:26:27,18-02-2024 15:26:27,0.640s,PASSED
"setText(findTestObject(""Page_Edit_Product/textfield_nama_produk""), ""test edit harga 0"")",Chrome 121.0.0.0,,,18-02-2024 15:26:27,18-02-2024 15:26:28,0.966s,PASSED
"setText(findTestObject(""Page_Edit_Product/textfield_harga_produk""), ""0"")",Chrome 121.0.0.0,,,18-02-2024 15:26:28,18-02-2024 15:26:29,0.602s,PASSED
"setText(findTestObject(""Page_Edit_Product/textfield_deskripsi""), ""test deskripsi katalon"")",Chrome 121.0.0.0,,,18-02-2024 15:26:29,18-02-2024 15:26:29,0.646s,PASSED
"click(findTestObject(""Page_Edit_Product/btn_Terbitkan""))",Chrome 121.0.0.0,,,18-02-2024 15:26:29,18-02-2024 15:26:33,3.365s,PASSED
"verifyElementClickable(findTestObject(""Page_Edit_Product/btn_Edit""))",Chrome 121.0.0.0,,,18-02-2024 15:26:33,18-02-2024 15:26:33,0.288s,PASSED
,,,,,,,
Test Cases/Step Definition/Feature Edit Barang/EDTP004 - Pengguna edit barang nama barang spasi angka,Chrome 121.0.0.0,,,18-02-2024 15:26:33,18-02-2024 15:26:47,13.629s,PASSED
openBrowser(url),Chrome 121.0.0.0,,,18-02-2024 15:26:33,18-02-2024 15:26:35,1.923s,PASSED
"click(findTestObject(""Page_User Login/btn_untuk masukkan login""))",Chrome 121.0.0.0,,,18-02-2024 15:26:35,18-02-2024 15:26:35,0.335s,PASSED
"verifyElementVisible(findTestObject(""Page_User Login/label_Masuk""), STOP_ON_FAILURE)",Chrome 121.0.0.0,,,18-02-2024 15:26:35,18-02-2024 15:26:36,0.617s,PASSED
"verifyElementVisible(findTestObject(""Page_User Login/textfield_username""))",Chrome 121.0.0.0,,,18-02-2024 15:26:36,18-02-2024 15:26:36,0.299s,PASSED
"verifyElementVisible(findTestObject(""Page_User Login/textfield_password""))",Chrome 121.0.0.0,,,18-02-2024 15:26:36,18-02-2024 15:26:37,0.306s,PASSED
"verifyElementVisible(findTestObject(""Page_User Login/btn_Masuk""))",Chrome 121.0.0.0,,,18-02-2024 15:26:37,18-02-2024 15:26:37,0.294s,PASSED
"setText(findTestObject(""Page_User Login/textfield_username""), ""overlord.njoo@gmail.com"")",Chrome 121.0.0.0,,,18-02-2024 15:26:37,18-02-2024 15:26:38,0.657s,PASSED
"setEncryptedText(findTestObject(""Page_User Login/textfield_password""), ""JWDOtPzUpHberWoIJ37UJA=="")",Chrome 121.0.0.0,,,18-02-2024 15:26:38,18-02-2024 15:26:38,0.346s,PASSED
"click(findTestObject(""Page_User Login/btn_Masuk""))",Chrome 121.0.0.0,,,18-02-2024 15:26:38,18-02-2024 15:26:38,0.315s,PASSED
"click(findTestObject(""Page_Edit_Product/btn_list_barang""))",Chrome 121.0.0.0,,,18-02-2024 15:26:38,18-02-2024 15:26:40,1.613s,PASSED
"click(findTestObject(""Page_Edit_Product/div_testing      Hobi      Rp 100""))",Chrome 121.0.0.0,,,18-02-2024 15:26:40,18-02-2024 15:26:41,0.641s,PASSED
"click(findTestObject(""Page_Edit_Product/btn_Edit""))",Chrome 121.0.0.0,,,18-02-2024 15:26:41,18-02-2024 15:26:41,0.637s,PASSED
"setText(findTestObject(""Page_Edit_Product/textfield_nama_produk""), ""      120"")",Chrome 121.0.0.0,,,18-02-2024 15:26:41,18-02-2024 15:26:42,0.956s,PASSED
"setText(findTestObject(""Page_Edit_Product/textfield_harga_produk""), ""1000000"")",Chrome 121.0.0.0,,,18-02-2024 15:26:42,18-02-2024 15:26:43,0.626s,PASSED
"setText(findTestObject(""Page_Edit_Product/textfield_deskripsi""), ""test deskripsi katalon"")",Chrome 121.0.0.0,,,18-02-2024 15:26:43,18-02-2024 15:26:43,0.662s,PASSED
"click(findTestObject(""Page_Edit_Product/btn_Terbitkan""))",Chrome 121.0.0.0,,,18-02-2024 15:26:43,18-02-2024 15:26:46,2.803s,PASSED
"verifyElementClickable(findTestObject(""Page_Edit_Product/btn_Edit""))",Chrome 121.0.0.0,,,18-02-2024 15:26:46,18-02-2024 15:26:47,0.497s,PASSED
,,,,,,,
Test Cases/Step Definition/Feature Edit Barang/EDTP005 - Pengguna edit barang nama barang spasi huruf,Chrome 121.0.0.0,,,18-02-2024 15:26:47,18-02-2024 15:27:00,13.252s,PASSED
openBrowser(url),Chrome 121.0.0.0,,,18-02-2024 15:26:47,18-02-2024 15:26:48,1.241s,PASSED
"click(findTestObject(""Page_User Login/btn_untuk masukkan login""))",Chrome 121.0.0.0,,,18-02-2024 15:26:48,18-02-2024 15:26:49,1.008s,PASSED
"verifyElementVisible(findTestObject(""Page_User Login/label_Masuk""), STOP_ON_FAILURE)",Chrome 121.0.0.0,,,18-02-2024 15:26:49,18-02-2024 15:26:50,0.624s,PASSED
"verifyElementVisible(findTestObject(""Page_User Login/textfield_username""))",Chrome 121.0.0.0,,,18-02-2024 15:26:50,18-02-2024 15:26:50,0.300s,PASSED
"verifyElementVisible(findTestObject(""Page_User Login/textfield_password""))",Chrome 121.0.0.0,,,18-02-2024 15:26:50,18-02-2024 15:26:50,0.299s,PASSED
"verifyElementVisible(findTestObject(""Page_User Login/btn_Masuk""))",Chrome 121.0.0.0,,,18-02-2024 15:26:50,18-02-2024 15:26:51,0.307s,PASSED
"setText(findTestObject(""Page_User Login/textfield_username""), ""overlord.njoo@gmail.com"")",Chrome 121.0.0.0,,,18-02-2024 15:26:51,18-02-2024 15:26:51,0.644s,PASSED
"setEncryptedText(findTestObject(""Page_User Login/textfield_password""), ""JWDOtPzUpHberWoIJ37UJA=="")",Chrome 121.0.0.0,,,18-02-2024 15:26:51,18-02-2024 15:26:52,0.344s,PASSED
"click(findTestObject(""Page_User Login/btn_Masuk""))",Chrome 121.0.0.0,,,18-02-2024 15:26:52,18-02-2024 15:26:52,0.330s,PASSED
"click(findTestObject(""Page_Edit_Product/btn_list_barang""))",Chrome 121.0.0.0,,,18-02-2024 15:26:52,18-02-2024 15:26:53,1.072s,PASSED
"click(findTestObject(""Page_Edit_Product/div_testing      Hobi      Rp 100""))",Chrome 121.0.0.0,,,18-02-2024 15:26:53,18-02-2024 15:26:54,0.652s,PASSED
"click(findTestObject(""Page_Edit_Product/btn_Edit""))",Chrome 121.0.0.0,,,18-02-2024 15:26:54,18-02-2024 15:26:54,0.659s,PASSED
"setText(findTestObject(""Page_Edit_Product/textfield_nama_produk""), ""      Product awal spasi"")",Chrome 121.0.0.0,,,18-02-2024 15:26:54,18-02-2024 15:26:55,1.005s,PASSED
"setText(findTestObject(""Page_Edit_Product/textfield_harga_produk""), ""1000000"")",Chrome 121.0.0.0,,,18-02-2024 15:26:55,18-02-2024 15:26:56,0.615s,PASSED
"setText(findTestObject(""Page_Edit_Product/textfield_deskripsi""), ""test deskripsi katalon"")",Chrome 121.0.0.0,,,18-02-2024 15:26:56,18-02-2024 15:26:57,0.631s,PASSED
"click(findTestObject(""Page_Edit_Product/btn_Terbitkan""))",Chrome 121.0.0.0,,,18-02-2024 15:26:57,18-02-2024 15:26:59,2.813s,PASSED
"verifyElementClickable(findTestObject(""Page_Edit_Product/btn_Edit""))",Chrome 121.0.0.0,,,18-02-2024 15:26:59,18-02-2024 15:27:00,0.595s,PASSED
,,,,,,,
Test Cases/Step Definition/Feature Edit Barang/EDTP006 - Pengguna edit barang nama barang spasi symbol,Chrome 121.0.0.0,,,18-02-2024 15:27:00,18-02-2024 15:27:13,13.445s,PASSED
openBrowser(url),Chrome 121.0.0.0,,,18-02-2024 15:27:00,18-02-2024 15:27:02,2.015s,PASSED
"click(findTestObject(""Page_User Login/btn_untuk masukkan login""))",Chrome 121.0.0.0,,,18-02-2024 15:27:02,18-02-2024 15:27:02,0.336s,PASSED
"verifyElementVisible(findTestObject(""Page_User Login/label_Masuk""), STOP_ON_FAILURE)",Chrome 121.0.0.0,,,18-02-2024 15:27:02,18-02-2024 15:27:03,0.628s,PASSED
"verifyElementVisible(findTestObject(""Page_User Login/textfield_username""))",Chrome 121.0.0.0,,,18-02-2024 15:27:03,18-02-2024 15:27:03,0.299s,PASSED
"verifyElementVisible(findTestObject(""Page_User Login/textfield_password""))",Chrome 121.0.0.0,,,18-02-2024 15:27:03,18-02-2024 15:27:04,0.291s,PASSED
"verifyElementVisible(findTestObject(""Page_User Login/btn_Masuk""))",Chrome 121.0.0.0,,,18-02-2024 15:27:04,18-02-2024 15:27:04,0.311s,PASSED
"setText(findTestObject(""Page_User Login/textfield_username""), ""overlord.njoo@gmail.com"")",Chrome 121.0.0.0,,,18-02-2024 15:27:04,18-02-2024 15:27:05,0.643s,PASSED
"setEncryptedText(findTestObject(""Page_User Login/textfield_password""), ""JWDOtPzUpHberWoIJ37UJA=="")",Chrome 121.0.0.0,,,18-02-2024 15:27:05,18-02-2024 15:27:05,0.340s,PASSED
"click(findTestObject(""Page_User Login/btn_Masuk""))",Chrome 121.0.0.0,,,18-02-2024 15:27:05,18-02-2024 15:27:05,0.318s,PASSED
"click(findTestObject(""Page_Edit_Product/btn_list_barang""))",Chrome 121.0.0.0,,,18-02-2024 15:27:05,18-02-2024 15:27:06,1.106s,PASSED
"click(findTestObject(""Page_Edit_Product/div_testing      Hobi      Rp 100""))",Chrome 121.0.0.0,,,18-02-2024 15:27:06,18-02-2024 15:27:07,0.650s,PASSED
"click(findTestObject(""Page_Edit_Product/btn_Edit""))",Chrome 121.0.0.0,,,18-02-2024 15:27:07,18-02-2024 15:27:08,0.651s,PASSED
"setText(findTestObject(""Page_Edit_Product/textfield_nama_produk""), ""      @#@"")",Chrome 121.0.0.0,,,18-02-2024 15:27:08,18-02-2024 15:27:09,0.957s,PASSED
"setText(findTestObject(""Page_Edit_Product/textfield_harga_produk""), ""1000000"")",Chrome 121.0.0.0,,,18-02-2024 15:27:09,18-02-2024 15:27:09,0.626s,PASSED
"setText(findTestObject(""Page_Edit_Product/textfield_deskripsi""), ""test deskripsi katalon"")",Chrome 121.0.0.0,,,18-02-2024 15:27:09,18-02-2024 15:27:10,0.651s,PASSED
"click(findTestObject(""Page_Edit_Product/btn_Terbitkan""))",Chrome 121.0.0.0,,,18-02-2024 15:27:10,18-02-2024 15:27:13,2.911s,PASSED
"verifyElementClickable(findTestObject(""Page_Edit_Product/btn_Edit""))",Chrome 121.0.0.0,,,18-02-2024 15:27:13,18-02-2024 15:27:13,0.577s,PASSED
,,,,,,,
Test Cases/Step Definition/Feature Edit Barang/EDTP007 - Pengguna edit barang harga minus,Chrome 121.0.0.0,,,18-02-2024 15:27:13,18-02-2024 15:27:28,14.184s,PASSED
openBrowser(url),Chrome 121.0.0.0,,,18-02-2024 15:27:14,18-02-2024 15:27:16,2.823s,PASSED
"click(findTestObject(""Page_User Login/btn_untuk masukkan login""))",Chrome 121.0.0.0,,,18-02-2024 15:27:16,18-02-2024 15:27:17,0.318s,PASSED
"verifyElementVisible(findTestObject(""Page_User Login/label_Masuk""), STOP_ON_FAILURE)",Chrome 121.0.0.0,,,18-02-2024 15:27:17,18-02-2024 15:27:17,0.630s,PASSED
"verifyElementVisible(findTestObject(""Page_User Login/textfield_username""))",Chrome 121.0.0.0,,,18-02-2024 15:27:17,18-02-2024 15:27:18,0.298s,PASSED
"verifyElementVisible(findTestObject(""Page_User Login/textfield_password""))",Chrome 121.0.0.0,,,18-02-2024 15:27:18,18-02-2024 15:27:18,0.278s,PASSED
"verifyElementVisible(findTestObject(""Page_User Login/btn_Masuk""))",Chrome 121.0.0.0,,,18-02-2024 15:27:18,18-02-2024 15:27:18,0.296s,PASSED
"setText(findTestObject(""Page_User Login/textfield_username""), ""overlord.njoo@gmail.com"")",Chrome 121.0.0.0,,,18-02-2024 15:27:18,18-02-2024 15:27:19,0.641s,PASSED
"setEncryptedText(findTestObject(""Page_User Login/textfield_password""), ""JWDOtPzUpHberWoIJ37UJA=="")",Chrome 121.0.0.0,,,18-02-2024 15:27:19,18-02-2024 15:27:19,0.341s,PASSED
"click(findTestObject(""Page_User Login/btn_Masuk""))",Chrome 121.0.0.0,,,18-02-2024 15:27:19,18-02-2024 15:27:19,0.320s,PASSED
"click(findTestObject(""Page_Edit_Product/btn_list_barang""))",Chrome 121.0.0.0,,,18-02-2024 15:27:19,18-02-2024 15:27:21,1.075s,PASSED
"click(findTestObject(""Page_Edit_Product/div_testing      Hobi      Rp 100""))",Chrome 121.0.0.0,,,18-02-2024 15:27:21,18-02-2024 15:27:21,0.642s,PASSED
"click(findTestObject(""Page_Edit_Product/btn_Edit""))",Chrome 121.0.0.0,,,18-02-2024 15:27:21,18-02-2024 15:27:22,0.640s,PASSED
"setText(findTestObject(""Page_Edit_Product/textfield_nama_produk""), ""product harga minus"")",Chrome 121.0.0.0,,,18-02-2024 15:27:22,18-02-2024 15:27:23,0.963s,PASSED
"setText(findTestObject(""Page_Edit_Product/textfield_harga_produk""), ""-100"")",Chrome 121.0.0.0,,,18-02-2024 15:27:23,18-02-2024 15:27:23,0.624s,PASSED
"setText(findTestObject(""Page_Edit_Product/textfield_deskripsi""), ""test deskripsi katalon"")",Chrome 121.0.0.0,,,18-02-2024 15:27:23,18-02-2024 15:27:24,0.660s,PASSED
"click(findTestObject(""Page_Edit_Product/btn_Terbitkan""))",Chrome 121.0.0.0,,,18-02-2024 15:27:24,18-02-2024 15:27:27,3.266s,PASSED
"verifyElementClickable(findTestObject(""Page_Edit_Product/btn_Edit""))",Chrome 121.0.0.0,,,18-02-2024 15:27:27,18-02-2024 15:27:28,0.286s,PASSED
,,,,,,,
Test Cases/Step Definition/Feature Edit Barang/EDTP001 - Pengguna edit barang,Chrome 121.0.0.0,,,18-02-2024 15:27:28,18-02-2024 15:27:41,13.879s,PASSED
openBrowser(url),Chrome 121.0.0.0,,,18-02-2024 15:27:28,18-02-2024 15:27:30,2.297s,PASSED
"click(findTestObject(""Page_User Login/btn_untuk masukkan login""))",Chrome 121.0.0.0,,,18-02-2024 15:27:30,18-02-2024 15:27:30,0.325s,PASSED
"verifyElementVisible(findTestObject(""Page_User Login/label_Masuk""), STOP_ON_FAILURE)",Chrome 121.0.0.0,,,18-02-2024 15:27:30,18-02-2024 15:27:31,0.629s,PASSED
"verifyElementVisible(findTestObject(""Page_User Login/textfield_username""))",Chrome 121.0.0.0,,,18-02-2024 15:27:31,18-02-2024 15:27:31,0.289s,PASSED
"verifyElementVisible(findTestObject(""Page_User Login/textfield_password""))",Chrome 121.0.0.0,,,18-02-2024 15:27:31,18-02-2024 15:27:32,0.299s,PASSED
"verifyElementVisible(findTestObject(""Page_User Login/btn_Masuk""))",Chrome 121.0.0.0,,,18-02-2024 15:27:32,18-02-2024 15:27:32,0.292s,PASSED
"setText(findTestObject(""Page_User Login/textfield_username""), ""overlord.njoo@gmail.com"")",Chrome 121.0.0.0,,,18-02-2024 15:27:32,18-02-2024 15:27:32,0.640s,PASSED
"setEncryptedText(findTestObject(""Page_User Login/textfield_password""), ""JWDOtPzUpHberWoIJ37UJA=="")",Chrome 121.0.0.0,,,18-02-2024 15:27:32,18-02-2024 15:27:33,0.342s,PASSED
"click(findTestObject(""Page_User Login/btn_Masuk""))",Chrome 121.0.0.0,,,18-02-2024 15:27:33,18-02-2024 15:27:33,0.307s,PASSED
"click(findTestObject(""Page_Edit_Product/btn_list_barang""))",Chrome 121.0.0.0,,,18-02-2024 15:27:33,18-02-2024 15:27:35,1.615s,PASSED
"click(findTestObject(""Page_Edit_Product/div_testing      Hobi      Rp 100""))",Chrome 121.0.0.0,,,18-02-2024 15:27:35,18-02-2024 15:27:35,0.641s,PASSED
"click(findTestObject(""Page_Edit_Product/btn_Edit""))",Chrome 121.0.0.0,,,18-02-2024 15:27:35,18-02-2024 15:27:36,0.641s,PASSED
"setText(findTestObject(""Page_Edit_Product/textfield_nama_produk""), ""edit product katalon"")",Chrome 121.0.0.0,,,18-02-2024 15:27:36,18-02-2024 15:27:37,0.961s,PASSED
"setText(findTestObject(""Page_Edit_Product/textfield_harga_produk""), ""1000000"")",Chrome 121.0.0.0,,,18-02-2024 15:27:37,18-02-2024 15:27:38,0.615s,PASSED
"setText(findTestObject(""Page_Edit_Product/textfield_deskripsi""), ""test deskripsi katalon"")",Chrome 121.0.0.0,,,18-02-2024 15:27:38,18-02-2024 15:27:38,0.656s,PASSED
"click(findTestObject(""Page_Edit_Product/btn_Terbitkan""))",Chrome 121.0.0.0,,,18-02-2024 15:27:38,18-02-2024 15:27:41,2.754s,PASSED
"verifyElementClickable(findTestObject(""Page_Edit_Product/btn_Edit""))",Chrome 121.0.0.0,,,18-02-2024 15:27:41,18-02-2024 15:27:41,0.488s,PASSED
