Suite/Test/Step Name,Browser,Description,Tag,Start time,End time,Duration,Status
Feature Cucumber Siong Tjie,Chrome 122.0.0.0,,,20-03-2024 20:49:03,20-03-2024 20:51:51,2m - 48.675s,PASSED
,,,,,,,
Test Cases/cucumber/Feature Register,Chrome 122.0.0.0,,,20-03-2024 20:49:03,20-03-2024 20:49:31,27.717s,PASSED
Start listener action : beforeTestCase,Chrome 122.0.0.0,,,20-03-2024 20:49:03,20-03-2024 20:49:04,0.486s,PASSED
"runFeatureFile(""Include/features/Register.feature"")",Chrome 122.0.0.0,,,20-03-2024 20:49:04,20-03-2024 20:49:31,27.009s,PASSED
,,,,,,,
Test Cases/cucumber/Feature Login,Chrome 122.0.0.0,,,20-03-2024 20:49:31,20-03-2024 20:49:52,21.120s,PASSED
Start listener action : beforeTestCase,Chrome 122.0.0.0,,,20-03-2024 20:49:31,20-03-2024 20:49:31,0.006s,PASSED
"runFeatureFile(""Include/features/Login.feature"")",Chrome 122.0.0.0,,,20-03-2024 20:49:31,20-03-2024 20:49:52,21.026s,PASSED
,,,,,,,
Test Cases/cucumber/Feature Edit Barang,Chrome 122.0.0.0,,,20-03-2024 20:49:52,20-03-2024 20:51:39,1m - 47.524s,PASSED
Start listener action : beforeTestCase,Chrome 122.0.0.0,,,20-03-2024 20:49:52,20-03-2024 20:49:52,0.009s,PASSED
"runFeatureFile(""Include/features/EditProduct.feature"")",Chrome 122.0.0.0,,,20-03-2024 20:49:52,20-03-2024 20:51:39,1m - 47.461s,PASSED
,,,,,,,
Test Cases/cucumber/Feature Log Out,Chrome 122.0.0.0,,,20-03-2024 20:51:39,20-03-2024 20:51:51,11.983s,PASSED
Start listener action : beforeTestCase,Chrome 122.0.0.0,,,20-03-2024 20:51:39,20-03-2024 20:51:39,0.002s,PASSED
"runFeatureFile(""Include/features/LogOut.feature"")",Chrome 122.0.0.0,,,20-03-2024 20:51:39,20-03-2024 20:51:51,11.884s,PASSED
