Suite/Test/Step Name,Browser,Description,Tag,Start time,End time,Duration,Status
Feature Login,Chrome 122.0.0.0,,,21-02-2024 19:18:07,21-02-2024 19:18:48,41.129s,PASSED
,,,,,,,
Test Cases/Step Definition/Feature Login/LG001 - pengguna tidak isi username dan pasword saat login,Chrome 122.0.0.0,,,21-02-2024 19:18:08,21-02-2024 19:18:16,8.043s,PASSED
Start listener action : beforeTestCase,Chrome 122.0.0.0,,,21-02-2024 19:18:08,21-02-2024 19:18:08,0.225s,PASSED
"callTestCase(findTestCase(""Buka Website""), [:], STOP_ON_FAILURE)",Chrome 122.0.0.0,,,21-02-2024 19:18:08,21-02-2024 19:18:12,3.924s,PASSED
"callTestCase(findTestCase(""Page/User Login/Click btn untuk masuk ke halaman login""), [:], STOP_ON_FAILURE)",Chrome 122.0.0.0,,,21-02-2024 19:18:12,21-02-2024 19:18:13,0.875s,PASSED
"callTestCase(findTestCase(""Page/User Login/Verify content""), [:], STOP_ON_FAILURE)",Chrome 122.0.0.0,,,21-02-2024 19:18:13,21-02-2024 19:18:15,1.760s,PASSED
"callTestCase(findTestCase(""Page/User Login/btn login""), [:], STOP_ON_FAILURE)",Chrome 122.0.0.0,,,21-02-2024 19:18:15,21-02-2024 19:18:15,0.491s,PASSED
"callTestCase(findTestCase(""Close Browser""), [:], STOP_ON_FAILURE)",Chrome 122.0.0.0,,,21-02-2024 19:18:15,21-02-2024 19:18:16,0.587s,PASSED
,,,,,,,
Test Cases/Step Definition/Feature Login/LG002 - pengguna login dengan username dan password salah,Chrome 122.0.0.0,,,21-02-2024 19:18:16,21-02-2024 19:18:24,8.162s,PASSED
Start listener action : beforeTestCase,Chrome 122.0.0.0,,,21-02-2024 19:18:16,21-02-2024 19:18:16,0.016s,PASSED
"callTestCase(findTestCase(""Buka Website""), [:], STOP_ON_FAILURE)",Chrome 122.0.0.0,,,21-02-2024 19:18:16,21-02-2024 19:18:19,2.893s,PASSED
"callTestCase(findTestCase(""Page/User Login/Click btn untuk masuk ke halaman login""), [:], STOP_ON_FAILURE)",Chrome 122.0.0.0,,,21-02-2024 19:18:19,21-02-2024 19:18:19,0.511s,PASSED
"callTestCase(findTestCase(""Page/User Login/Verify content""), [:], STOP_ON_FAILURE)",Chrome 122.0.0.0,,,21-02-2024 19:18:19,21-02-2024 19:18:21,1.685s,PASSED
"callTestCase(findTestCase(""Page/User Login/Input username salah""), [:], STOP_ON_FAILURE)",Chrome 122.0.0.0,,,21-02-2024 19:18:21,21-02-2024 19:18:22,0.997s,PASSED
"callTestCase(findTestCase(""Page/User Login/Input password salah""), [:], STOP_ON_FAILURE)",Chrome 122.0.0.0,,,21-02-2024 19:18:22,21-02-2024 19:18:22,0.552s,PASSED
"callTestCase(findTestCase(""Page/User Login/btn login""), [:], STOP_ON_FAILURE)",Chrome 122.0.0.0,,,21-02-2024 19:18:22,21-02-2024 19:18:23,0.466s,PASSED
"callTestCase(findTestCase(""Page/User Login/Read error mesaage""), [""expected"":""invalid username or password""], STOP_ON_FAILURE)",Chrome 122.0.0.0,,,21-02-2024 19:18:23,21-02-2024 19:18:23,0.625s,PASSED
"callTestCase(findTestCase(""Close Browser""), [:], STOP_ON_FAILURE)",Chrome 122.0.0.0,,,21-02-2024 19:18:23,21-02-2024 19:18:24,0.298s,PASSED
,,,,,,,
Test Cases/Step Definition/Feature Login/LG003 - pengguna login dengan username benar dan password salah,Chrome 122.0.0.0,,,21-02-2024 19:18:24,21-02-2024 19:18:32,8.305s,PASSED
Start listener action : beforeTestCase,Chrome 122.0.0.0,,,21-02-2024 19:18:24,21-02-2024 19:18:24,0.003s,PASSED
"callTestCase(findTestCase(""Buka Website""), [:], STOP_ON_FAILURE)",Chrome 122.0.0.0,,,21-02-2024 19:18:24,21-02-2024 19:18:27,2.817s,PASSED
"callTestCase(findTestCase(""Page/User Login/Click btn untuk masuk ke halaman login""), [:], STOP_ON_FAILURE)",Chrome 122.0.0.0,,,21-02-2024 19:18:27,21-02-2024 19:18:27,0.481s,PASSED
"callTestCase(findTestCase(""Page/User Login/Verify content""), [:], STOP_ON_FAILURE)",Chrome 122.0.0.0,,,21-02-2024 19:18:27,21-02-2024 19:18:29,1.857s,PASSED
"callTestCase(findTestCase(""Page/User Login/Input username benar""), [:], STOP_ON_FAILURE)",Chrome 122.0.0.0,,,21-02-2024 19:18:29,21-02-2024 19:18:30,0.829s,PASSED
"callTestCase(findTestCase(""Page/User Login/Input password salah""), [:], STOP_ON_FAILURE)",Chrome 122.0.0.0,,,21-02-2024 19:18:30,21-02-2024 19:18:30,0.511s,PASSED
"callTestCase(findTestCase(""Page/User Login/btn login""), [:], STOP_ON_FAILURE)",Chrome 122.0.0.0,,,21-02-2024 19:18:30,21-02-2024 19:18:31,0.465s,PASSED
"callTestCase(findTestCase(""Page/User Login/Read error mesaage""), [""expected"":""invalid username or password""], STOP_ON_FAILURE)",Chrome 122.0.0.0,,,21-02-2024 19:18:31,21-02-2024 19:18:32,0.968s,PASSED
"callTestCase(findTestCase(""Close Browser""), [:], STOP_ON_FAILURE)",Chrome 122.0.0.0,,,21-02-2024 19:18:32,21-02-2024 19:18:32,0.280s,PASSED
,,,,,,,
Test Cases/Step Definition/Feature Login/LG004 - pengguna login dengan username salah dan password benar,Chrome 122.0.0.0,,,21-02-2024 19:18:32,21-02-2024 19:18:40,8.145s,PASSED
Start listener action : beforeTestCase,Chrome 122.0.0.0,,,21-02-2024 19:18:32,21-02-2024 19:18:32,0.004s,PASSED
"callTestCase(findTestCase(""Buka Website""), [:], STOP_ON_FAILURE)",Chrome 122.0.0.0,,,21-02-2024 19:18:32,21-02-2024 19:18:36,3.263s,PASSED
"callTestCase(findTestCase(""Page/User Login/Click btn untuk masuk ke halaman login""), [:], STOP_ON_FAILURE)",Chrome 122.0.0.0,,,21-02-2024 19:18:36,21-02-2024 19:18:36,0.420s,PASSED
"callTestCase(findTestCase(""Page/User Login/Verify content""), [:], STOP_ON_FAILURE)",Chrome 122.0.0.0,,,21-02-2024 19:18:36,21-02-2024 19:18:38,1.529s,PASSED
"callTestCase(findTestCase(""Page/User Login/Input username salah""), [:], STOP_ON_FAILURE)",Chrome 122.0.0.0,,,21-02-2024 19:18:38,21-02-2024 19:18:38,0.815s,PASSED
"callTestCase(findTestCase(""Page/User Login/Input password benar""), [:], STOP_ON_FAILURE)",Chrome 122.0.0.0,,,21-02-2024 19:18:38,21-02-2024 19:18:39,0.496s,PASSED
"callTestCase(findTestCase(""Page/User Login/btn login""), [:], STOP_ON_FAILURE)",Chrome 122.0.0.0,,,21-02-2024 19:18:39,21-02-2024 19:18:39,0.456s,PASSED
"callTestCase(findTestCase(""Page/User Login/Read error mesaage""), [""expected"":""invalid username or password""], STOP_ON_FAILURE)",Chrome 122.0.0.0,,,21-02-2024 19:18:39,21-02-2024 19:18:40,0.694s,PASSED
"callTestCase(findTestCase(""Close Browser""), [:], STOP_ON_FAILURE)",Chrome 122.0.0.0,,,21-02-2024 19:18:40,21-02-2024 19:18:40,0.271s,PASSED
,,,,,,,
Test Cases/Step Definition/Feature Login/LG005 - pengguna login dengan username dan password benar,Chrome 122.0.0.0,,,21-02-2024 19:18:40,21-02-2024 19:18:48,8.153s,PASSED
Start listener action : beforeTestCase,Chrome 122.0.0.0,,,21-02-2024 19:18:40,21-02-2024 19:18:40,0.002s,PASSED
"callTestCase(findTestCase(""Buka Website""), [:], STOP_ON_FAILURE)",Chrome 122.0.0.0,,,21-02-2024 19:18:40,21-02-2024 19:18:43,2.446s,PASSED
"callTestCase(findTestCase(""Page/User Login/Click btn untuk masuk ke halaman login""), [:], STOP_ON_FAILURE)",Chrome 122.0.0.0,,,21-02-2024 19:18:43,21-02-2024 19:18:43,0.475s,PASSED
"callTestCase(findTestCase(""Page/User Login/Verify content""), [:], STOP_ON_FAILURE)",Chrome 122.0.0.0,,,21-02-2024 19:18:43,21-02-2024 19:18:45,1.603s,PASSED
"callTestCase(findTestCase(""Page/User Login/Input username benar""), [:], STOP_ON_FAILURE)",Chrome 122.0.0.0,,,21-02-2024 19:18:45,21-02-2024 19:18:46,0.790s,PASSED
"callTestCase(findTestCase(""Page/User Login/Input password benar""), [:], STOP_ON_FAILURE)",Chrome 122.0.0.0,,,21-02-2024 19:18:46,21-02-2024 19:18:46,0.474s,PASSED
"callTestCase(findTestCase(""Page/User Login/btn login""), [:], STOP_ON_FAILURE)",Chrome 122.0.0.0,,,21-02-2024 19:18:46,21-02-2024 19:18:47,0.435s,PASSED
"callTestCase(findTestCase(""Page/User Login/Verfiy Berhasil Login""), [:], STOP_ON_FAILURE)",Chrome 122.0.0.0,,,21-02-2024 19:18:47,21-02-2024 19:18:48,1.569s,PASSED
"callTestCase(findTestCase(""Close Browser""), [:], STOP_ON_FAILURE)",Chrome 122.0.0.0,,,21-02-2024 19:18:48,21-02-2024 19:18:48,0.256s,PASSED
