[
  {
    "line": 1,
    "elements": [
      {
        "BDD_TESTRUN_UUID": "0302b6cc-cfb8-430f-b69b-bf1b564b1cfb",
        "line": 3,
        "name": "User want to edit product",
        "description": "",
        "id": "edit-product-feature;user-want-to-edit-product",
        "type": "scenario",
        "keyword": "Scenario",
        "steps": [
          {
            "result": {
              "duration": 6021114300,
              "status": "passed"
            },
            "line": 4,
            "name": "User Edit Product In Form Edit Product",
            "match": {
              "location": "EditProductionStep.navigateToEditPage()"
            },
            "keyword": "Given ",
            "BDD_STEP_UUID": "3fdc3d81-37dc-4d37-857a-bbb7ab421b03"
          },
          {
            "result": {
              "duration": 100892256100,
              "status": "passed"
            },
            "line": 5,
            "name": "User update product and click product",
            "match": {
              "location": "EditProductionStep.updateproduct()"
            },
            "keyword": "When ",
            "BDD_STEP_UUID": "5bbec439-f22a-4699-868d-11c71026de98"
          },
          {
            "result": {
              "duration": 450773200,
              "status": "passed"
            },
            "line": 6,
            "name": "User on halaman edit",
            "match": {
              "location": "EditProductionStep.verifyeditpage()"
            },
            "keyword": "Then ",
            "BDD_STEP_UUID": "85d7e7cb-095e-40b2-b43c-513a9c570b49"
          }
        ]
      }
    ],
    "name": "Edit Product Feature",
    "description": "",
    "id": "edit-product-feature",
    "keyword": "Feature",
    "uri": "C:/Binar Academy/Platinum Challenge/platinum_challenge_web_qae17/Include/features/EditProduct.feature",
    "tags": []
  }
]