Suite/Test/Step Name,Browser,Description,Tag,Start time,End time,Duration,Status
Feature Cucumber,Chrome 122.0.0.0,,,24-02-2024 08:07:37,24-02-2024 08:09:57,2m - 19.355s,PASSED
,,,,,,,
Test Cases/cucumber/Feature Register,Chrome 122.0.0.0,,,24-02-2024 08:07:37,24-02-2024 08:08:01,23.676s,PASSED
Start listener action : beforeTestCase,Chrome 122.0.0.0,,,24-02-2024 08:07:37,24-02-2024 08:07:38,0.145s,PASSED
"runFeatureFile(""Include/features/Register.feature"")",Chrome 122.0.0.0,,,24-02-2024 08:07:38,24-02-2024 08:08:01,23.424s,PASSED
,,,,,,,
Test Cases/cucumber/Feature Login,Chrome 122.0.0.0,,,24-02-2024 08:08:01,24-02-2024 08:08:19,17.478s,PASSED
Start listener action : beforeTestCase,Chrome 122.0.0.0,,,24-02-2024 08:08:01,24-02-2024 08:08:01,0.007s,PASSED
"runFeatureFile(""Include/features/Login.feature"")",Chrome 122.0.0.0,,,24-02-2024 08:08:01,24-02-2024 08:08:19,17.360s,PASSED
,,,,,,,
Test Cases/cucumber/Feature Edit Barang,Chrome 122.0.0.0,,,24-02-2024 08:08:19,24-02-2024 08:09:46,1m - 27.559s,PASSED
Start listener action : beforeTestCase,Chrome 122.0.0.0,,,24-02-2024 08:08:19,24-02-2024 08:08:19,0.006s,PASSED
"runFeatureFile(""Include/features/EditProduct.feature"")",Chrome 122.0.0.0,,,24-02-2024 08:08:19,24-02-2024 08:09:46,1m - 27.507s,PASSED
,,,,,,,
Test Cases/cucumber/Feature Log Out,Chrome 122.0.0.0,,,24-02-2024 08:09:46,24-02-2024 08:09:57,10.424s,PASSED
Start listener action : beforeTestCase,Chrome 122.0.0.0,,,24-02-2024 08:09:46,24-02-2024 08:09:46,0.016s,PASSED
"runFeatureFile(""Include/features/LogOut.feature"")",Chrome 122.0.0.0,,,24-02-2024 08:09:46,24-02-2024 08:09:57,10.329s,PASSED
