[
  {
    "line": 1,
    "elements": [
      {
        "BDD_TESTRUN_UUID": "591f7fe4-4da0-42b4-92a2-e7684aec78dd",
        "line": 3,
        "name": "User want to logout",
        "description": "",
        "id": "logout-feature;user-want-to-logout",
        "type": "scenario",
        "keyword": "Scenario",
        "steps": [
          {
            "result": {
              "duration": 2702576300,
              "status": "passed"
            },
            "line": 4,
            "name": "User login page",
            "match": {
              "location": "LogoutStep.navigateToLoginPage()"
            },
            "keyword": "Given ",
            "BDD_STEP_UUID": "e4a0b78b-5239-4041-8e15-da6f2feb8f98"
          },
          {
            "result": {
              "duration": 2102275200,
              "status": "passed"
            },
            "line": 5,
            "name": "User enter username and password and click login",
            "match": {
              "location": "LogoutStep.entercredentials()"
            },
            "keyword": "When ",
            "BDD_STEP_UUID": "0569ca3d-8db5-4e8b-ae4b-5f3e70caef6e"
          },
          {
            "result": {
              "duration": 1590825300,
              "status": "passed"
            },
            "line": 6,
            "name": "Click on logout button",
            "match": {
              "location": "LogoutStep.clicklogout()"
            },
            "keyword": "And ",
            "BDD_STEP_UUID": "5a15c0d3-191e-43f3-91d9-bab00a5e3b7a"
          },
          {
            "result": {
              "duration": 921795600,
              "status": "passed"
            },
            "line": 7,
            "name": "User on homepage",
            "match": {
              "location": "LogoutStep.verifyhomepage()"
            },
            "keyword": "Then ",
            "BDD_STEP_UUID": "570fc755-bd70-4b89-a9f7-cc6a528eca2f"
          }
        ]
      }
    ],
    "name": "LogOut Feature",
    "description": "",
    "id": "logout-feature",
    "keyword": "Feature",
    "uri": "C:/Binar Academy/Platinum Challenge/platinum_challenge_web_qae17/Include/features/LogOut.feature",
    "tags": []
  }
]