[
  {
    "line": 1,
    "elements": [
      {
        "BDD_TESTRUN_UUID": "5595d0e6-d6c6-4ac8-89b9-870663db3698",
        "line": 3,
        "name": "User want to logout",
        "description": "",
        "id": "logout-feature;user-want-to-logout",
        "type": "scenario",
        "keyword": "Scenario",
        "steps": [
          {
            "result": {
              "duration": 2760491900,
              "status": "passed"
            },
            "line": 4,
            "name": "User login page",
            "match": {
              "location": "LogoutStep.navigateToLoginPage()"
            },
            "keyword": "Given ",
            "BDD_STEP_UUID": "2ae477e3-fdae-4ed3-b467-9f6a2bcbd2fd"
          },
          {
            "result": {
              "duration": 1821470600,
              "status": "passed"
            },
            "line": 5,
            "name": "User enter username and password and click login",
            "match": {
              "location": "LogoutStep.entercredentials()"
            },
            "keyword": "When ",
            "BDD_STEP_UUID": "feadced8-5f86-42a3-a804-e743a6b27e89"
          },
          {
            "result": {
              "duration": 2047613500,
              "status": "passed"
            },
            "line": 6,
            "name": "Click on logout button",
            "match": {
              "location": "LogoutStep.clicklogout()"
            },
            "keyword": "And ",
            "BDD_STEP_UUID": "e3de4a03-bded-4c4a-b6a1-7058612181cd"
          },
          {
            "result": {
              "duration": 914566000,
              "status": "passed"
            },
            "line": 7,
            "name": "User on homepage",
            "match": {
              "location": "LogoutStep.verifyhomepage()"
            },
            "keyword": "Then ",
            "BDD_STEP_UUID": "c98f37e5-47b9-4797-b2f3-d314e44855ea"
          }
        ]
      }
    ],
    "name": "LogOut Feature",
    "description": "",
    "id": "logout-feature",
    "keyword": "Feature",
    "uri": "C:/Users/USER/Katalon Studio/Website Binar/Include/features/LogOut.feature",
    "tags": []
  }
]