Suite/Test/Step Name,Browser,Description,Tag,Start time,End time,Duration,Status
Feature Cucumber Siong Tjie,Chrome 122.0.0.0,,,21-03-2024 08:00:18,21-03-2024 08:02:41,2m - 23.051s,PASSED
,,,,,,,
Test Cases/cucumber/Feature Register,Chrome 122.0.0.0,,,21-03-2024 08:00:18,21-03-2024 08:00:45,27.197s,PASSED
Start listener action : beforeTestCase,Chrome 122.0.0.0,,,21-03-2024 08:00:18,21-03-2024 08:00:19,0.347s,PASSED
"runFeatureFile(""Include/features/Register.feature"")",Chrome 122.0.0.0,,,21-03-2024 08:00:19,21-03-2024 08:00:45,26.656s,PASSED
,,,,,,,
Test Cases/cucumber/Feature Login,Chrome 122.0.0.0,,,21-03-2024 08:00:45,21-03-2024 08:01:02,16.789s,PASSED
Start listener action : beforeTestCase,Chrome 122.0.0.0,,,21-03-2024 08:00:45,21-03-2024 08:00:45,0.012s,PASSED
"runFeatureFile(""Include/features/Login.feature"")",Chrome 122.0.0.0,,,21-03-2024 08:00:46,21-03-2024 08:01:02,16.646s,PASSED
,,,,,,,
Test Cases/cucumber/Feature Edit Barang,Chrome 122.0.0.0,,,21-03-2024 08:01:02,21-03-2024 08:02:33,1m - 30.677s,PASSED
Start listener action : beforeTestCase,Chrome 122.0.0.0,,,21-03-2024 08:01:02,21-03-2024 08:01:02,0.012s,PASSED
"runFeatureFile(""Include/features/EditProduct.feature"")",Chrome 122.0.0.0,,,21-03-2024 08:01:02,21-03-2024 08:02:33,1m - 30.544s,PASSED
,,,,,,,
Test Cases/cucumber/Feature Log Out,Chrome 122.0.0.0,,,21-03-2024 08:02:33,21-03-2024 08:02:41,7.957s,PASSED
Start listener action : beforeTestCase,Chrome 122.0.0.0,,,21-03-2024 08:02:33,21-03-2024 08:02:33,0.014s,PASSED
"runFeatureFile(""Include/features/LogOut.feature"")",Chrome 122.0.0.0,,,21-03-2024 08:02:33,21-03-2024 08:02:41,7.617s,PASSED
