Suite/Test/Step Name,Browser,Description,Tag,Start time,End time,Duration,Status
Feature Login,Chrome 122.0.0.0,,,18-03-2024 11:46:33,18-03-2024 11:47:06,33.199s,PASSED
,,,,,,,
Test Cases/Step Definition/Feature Login/LG001 - pengguna tidak isi username dan pasword saat login,Chrome 122.0.0.0,,,18-03-2024 11:46:33,18-03-2024 11:46:40,6.555s,PASSED
Start listener action : beforeTestCase,Chrome 122.0.0.0,,,18-03-2024 11:46:33,18-03-2024 11:46:33,0.216s,PASSED
"callTestCase(findTestCase(""Buka Website""), [:], STOP_ON_FAILURE)",Chrome 122.0.0.0,,,18-03-2024 11:46:33,18-03-2024 11:46:37,3.247s,PASSED
"callTestCase(findTestCase(""Page/User Login/Click btn untuk masuk ke halaman login""), [:], STOP_ON_FAILURE)",Chrome 122.0.0.0,,,18-03-2024 11:46:37,18-03-2024 11:46:37,0.599s,PASSED
"callTestCase(findTestCase(""Page/User Login/Verify content""), [:], STOP_ON_FAILURE)",Chrome 122.0.0.0,,,18-03-2024 11:46:37,18-03-2024 11:46:39,1.509s,PASSED
"callTestCase(findTestCase(""Page/User Login/btn login""), [:], STOP_ON_FAILURE)",Chrome 122.0.0.0,,,18-03-2024 11:46:39,18-03-2024 11:46:39,0.435s,PASSED
"callTestCase(findTestCase(""Close Browser""), [:], STOP_ON_FAILURE)",Chrome 122.0.0.0,,,18-03-2024 11:46:39,18-03-2024 11:46:40,0.391s,PASSED
,,,,,,,
Test Cases/Step Definition/Feature Login/LG002 - pengguna login dengan username dan password salah,Chrome 122.0.0.0,,,18-03-2024 11:46:40,18-03-2024 11:46:46,6.461s,PASSED
Start listener action : beforeTestCase,Chrome 122.0.0.0,,,18-03-2024 11:46:40,18-03-2024 11:46:40,0.006s,PASSED
"callTestCase(findTestCase(""Buka Website""), [:], STOP_ON_FAILURE)",Chrome 122.0.0.0,,,18-03-2024 11:46:40,18-03-2024 11:46:41,1.766s,PASSED
"callTestCase(findTestCase(""Page/User Login/Click btn untuk masuk ke halaman login""), [:], STOP_ON_FAILURE)",Chrome 122.0.0.0,,,18-03-2024 11:46:41,18-03-2024 11:46:42,0.429s,PASSED
"callTestCase(findTestCase(""Page/User Login/Verify content""), [:], STOP_ON_FAILURE)",Chrome 122.0.0.0,,,18-03-2024 11:46:42,18-03-2024 11:46:43,1.428s,PASSED
"callTestCase(findTestCase(""Page/User Login/Input username salah""), [:], STOP_ON_FAILURE)",Chrome 122.0.0.0,,,18-03-2024 11:46:43,18-03-2024 11:46:44,0.962s,PASSED
"callTestCase(findTestCase(""Page/User Login/Input password salah""), [:], STOP_ON_FAILURE)",Chrome 122.0.0.0,,,18-03-2024 11:46:44,18-03-2024 11:46:45,0.455s,PASSED
"callTestCase(findTestCase(""Page/User Login/btn login""), [:], STOP_ON_FAILURE)",Chrome 122.0.0.0,,,18-03-2024 11:46:45,18-03-2024 11:46:45,0.408s,PASSED
"callTestCase(findTestCase(""Page/User Login/Read error mesaage""), [""expected"":""invalid username or password""], STOP_ON_FAILURE)",Chrome 122.0.0.0,,,18-03-2024 11:46:45,18-03-2024 11:46:46,0.564s,PASSED
"callTestCase(findTestCase(""Close Browser""), [:], STOP_ON_FAILURE)",Chrome 122.0.0.0,,,18-03-2024 11:46:46,18-03-2024 11:46:46,0.294s,PASSED
,,,,,,,
Test Cases/Step Definition/Feature Login/LG003 - pengguna login dengan username benar dan password salah,Chrome 122.0.0.0,,,18-03-2024 11:46:46,18-03-2024 11:46:53,6.548s,PASSED
Start listener action : beforeTestCase,Chrome 122.0.0.0,,,18-03-2024 11:46:46,18-03-2024 11:46:46,0.014s,PASSED
"callTestCase(findTestCase(""Buka Website""), [:], STOP_ON_FAILURE)",Chrome 122.0.0.0,,,18-03-2024 11:46:46,18-03-2024 11:46:48,1.924s,PASSED
"callTestCase(findTestCase(""Page/User Login/Click btn untuk masuk ke halaman login""), [:], STOP_ON_FAILURE)",Chrome 122.0.0.0,,,18-03-2024 11:46:48,18-03-2024 11:46:49,0.399s,PASSED
"callTestCase(findTestCase(""Page/User Login/Verify content""), [:], STOP_ON_FAILURE)",Chrome 122.0.0.0,,,18-03-2024 11:46:49,18-03-2024 11:46:50,1.365s,PASSED
"callTestCase(findTestCase(""Page/User Login/Input username benar""), [:], STOP_ON_FAILURE)",Chrome 122.0.0.0,,,18-03-2024 11:46:50,18-03-2024 11:46:51,0.782s,PASSED
"callTestCase(findTestCase(""Page/User Login/Input password salah""), [:], STOP_ON_FAILURE)",Chrome 122.0.0.0,,,18-03-2024 11:46:51,18-03-2024 11:46:51,0.397s,PASSED
"callTestCase(findTestCase(""Page/User Login/btn login""), [:], STOP_ON_FAILURE)",Chrome 122.0.0.0,,,18-03-2024 11:46:51,18-03-2024 11:46:51,0.395s,PASSED
"callTestCase(findTestCase(""Page/User Login/Read error mesaage""), [""expected"":""invalid username or password""], STOP_ON_FAILURE)",Chrome 122.0.0.0,,,18-03-2024 11:46:51,18-03-2024 11:46:52,0.823s,PASSED
"callTestCase(findTestCase(""Close Browser""), [:], STOP_ON_FAILURE)",Chrome 122.0.0.0,,,18-03-2024 11:46:52,18-03-2024 11:46:53,0.285s,PASSED
,,,,,,,
Test Cases/Step Definition/Feature Login/LG004 - pengguna login dengan username salah dan password benar,Chrome 122.0.0.0,,,18-03-2024 11:46:53,18-03-2024 11:46:59,6.213s,PASSED
Start listener action : beforeTestCase,Chrome 122.0.0.0,,,18-03-2024 11:46:53,18-03-2024 11:46:53,0.004s,PASSED
"callTestCase(findTestCase(""Buka Website""), [:], STOP_ON_FAILURE)",Chrome 122.0.0.0,,,18-03-2024 11:46:53,18-03-2024 11:46:55,1.900s,PASSED
"callTestCase(findTestCase(""Page/User Login/Click btn untuk masuk ke halaman login""), [:], STOP_ON_FAILURE)",Chrome 122.0.0.0,,,18-03-2024 11:46:55,18-03-2024 11:46:55,0.398s,PASSED
"callTestCase(findTestCase(""Page/User Login/Verify content""), [:], STOP_ON_FAILURE)",Chrome 122.0.0.0,,,18-03-2024 11:46:55,18-03-2024 11:46:56,1.384s,PASSED
"callTestCase(findTestCase(""Page/User Login/Input username salah""), [:], STOP_ON_FAILURE)",Chrome 122.0.0.0,,,18-03-2024 11:46:56,18-03-2024 11:46:57,0.752s,PASSED
"callTestCase(findTestCase(""Page/User Login/Input password benar""), [:], STOP_ON_FAILURE)",Chrome 122.0.0.0,,,18-03-2024 11:46:57,18-03-2024 11:46:58,0.432s,PASSED
"callTestCase(findTestCase(""Page/User Login/btn login""), [:], STOP_ON_FAILURE)",Chrome 122.0.0.0,,,18-03-2024 11:46:58,18-03-2024 11:46:58,0.428s,PASSED
"callTestCase(findTestCase(""Page/User Login/Read error mesaage""), [""expected"":""invalid username or password""], STOP_ON_FAILURE)",Chrome 122.0.0.0,,,18-03-2024 11:46:58,18-03-2024 11:46:59,0.533s,PASSED
"callTestCase(findTestCase(""Close Browser""), [:], STOP_ON_FAILURE)",Chrome 122.0.0.0,,,18-03-2024 11:46:59,18-03-2024 11:46:59,0.265s,PASSED
,,,,,,,
Test Cases/Step Definition/Feature Login/LG005 - pengguna login dengan username dan password benar,Chrome 122.0.0.0,,,18-03-2024 11:46:59,18-03-2024 11:47:06,6.992s,PASSED
Start listener action : beforeTestCase,Chrome 122.0.0.0,,,18-03-2024 11:46:59,18-03-2024 11:46:59,0.003s,PASSED
"callTestCase(findTestCase(""Buka Website""), [:], STOP_ON_FAILURE)",Chrome 122.0.0.0,,,18-03-2024 11:46:59,18-03-2024 11:47:01,1.647s,PASSED
"callTestCase(findTestCase(""Page/User Login/Click btn untuk masuk ke halaman login""), [:], STOP_ON_FAILURE)",Chrome 122.0.0.0,,,18-03-2024 11:47:01,18-03-2024 11:47:01,0.410s,PASSED
"callTestCase(findTestCase(""Page/User Login/Verify content""), [:], STOP_ON_FAILURE)",Chrome 122.0.0.0,,,18-03-2024 11:47:01,18-03-2024 11:47:02,1.459s,PASSED
"callTestCase(findTestCase(""Page/User Login/Input username benar""), [:], STOP_ON_FAILURE)",Chrome 122.0.0.0,,,18-03-2024 11:47:02,18-03-2024 11:47:03,0.739s,PASSED
"callTestCase(findTestCase(""Page/User Login/Input password benar""), [:], STOP_ON_FAILURE)",Chrome 122.0.0.0,,,18-03-2024 11:47:03,18-03-2024 11:47:04,0.417s,PASSED
"callTestCase(findTestCase(""Page/User Login/btn login""), [:], STOP_ON_FAILURE)",Chrome 122.0.0.0,,,18-03-2024 11:47:04,18-03-2024 11:47:04,0.411s,PASSED
"callTestCase(findTestCase(""Page/User Login/Verfiy Berhasil Login""), [:], STOP_ON_FAILURE)",Chrome 122.0.0.0,,,18-03-2024 11:47:04,18-03-2024 11:47:06,1.506s,PASSED
"callTestCase(findTestCase(""Close Browser""), [:], STOP_ON_FAILURE)",Chrome 122.0.0.0,,,18-03-2024 11:47:06,18-03-2024 11:47:06,0.249s,PASSED
